"","pvfs_servers","iofsl_servers","clients","processes","size","read","access_pattern","twins","computed_bandwidth"
"1",4,1,32,128,262144,1,"FP",250,57.522176090885
"2",4,1,32,128,262144,1,"FP",4000,58.3880008096774
"3",4,1,32,128,262144,1,"FP",125,59.8753464284341
"4",4,1,32,128,262144,1,"FP",2000,61.2282909384222
"5",4,1,32,128,262144,1,"FP",500,61.8800288854041
"6",4,1,32,128,262144,1,"FP",8000,62.5228679373849
"7",4,1,32,128,262144,1,"FP",1000,65.0675759182614
"8",4,1,32,128,32768,1,"FP",500,40.0701619143676
"9",4,1,32,128,32768,1,"FP",2000,41.1212404961093
"10",4,1,32,128,32768,1,"FP",4000,41.1491461652632
"11",4,1,32,128,32768,1,"FP",1000,41.9477564043809
"12",4,1,32,128,32768,1,"FP",250,42.0274122154479
"13",4,1,32,128,32768,1,"FP",8000,42.4583509595266
"14",4,1,32,128,32768,1,"FP",125,43.4004369500046
"15",4,1,32,128,262144,0,"FP",4000,14.3829315055025
"16",4,1,32,128,262144,0,"FP",1000,14.9264391842351
"17",4,1,32,128,262144,0,"FP",8000,14.9601907716515
"18",4,1,32,128,262144,0,"FP",500,15.064782980326
"19",4,1,32,128,262144,0,"FP",2000,15.0729433307378
"20",4,1,32,128,262144,0,"FP",250,15.131387432969
"21",4,1,32,128,262144,0,"FP",125,15.238786879464
"22",4,1,32,128,32768,0,"FP",250,3.52489023443618
"23",4,1,32,128,32768,0,"FP",2000,3.60839409724516
"24",4,1,32,128,32768,0,"FP",500,3.62823039617335
"25",4,1,32,128,32768,0,"FP",4000,3.68706072128125
"26",4,1,32,128,32768,0,"FP",1000,3.71419555384677
"27",4,1,32,128,32768,0,"FP",8000,3.72448283700841
"28",4,1,32,128,32768,0,"FP",125,3.80588853466787
"29",4,1,32,128,262144,1,"SC",500,55.4526573614689
"30",4,1,32,128,262144,1,"SC",250,56.1614884110714
"31",4,1,32,128,262144,1,"SC",1000,57.4662652258946
"32",4,1,32,128,262144,1,"SC",125,57.6838606163019
"33",4,1,32,128,262144,1,"SC",8000,59.4002575268001
"34",4,1,32,128,262144,1,"SC",4000,60.6113698406347
"35",4,1,32,128,262144,1,"SC",2000,64.3875729469073
"36",4,1,32,128,32768,1,"SC",8000,36.3810452622482
"37",4,1,32,128,32768,1,"SC",2000,40.0126211685913
"38",4,1,32,128,32768,1,"SC",1000,40.6953176539785
"39",4,1,32,128,32768,1,"SC",4000,41.8720614292583
"40",4,1,32,128,32768,1,"SC",250,46.3246020053938
"41",4,1,32,128,32768,1,"SC",500,48.8218219240732
"42",4,1,32,128,32768,1,"SC",125,52.9776518638795
"43",4,1,32,128,262144,1,"SS",125,54.4319587890537
"44",4,1,32,128,262144,1,"SS",250,56.3094257937038
"45",4,1,32,128,262144,1,"SS",500,57.0216225547246
"46",4,1,32,128,262144,1,"SS",8000,57.7182764725171
"47",4,1,32,128,262144,1,"SS",1000,58.4740221733035
"48",4,1,32,128,262144,1,"SS",4000,59.9081778465526
"49",4,1,32,128,262144,1,"SS",2000,60.953895729254
"50",4,1,32,128,32768,1,"SS",2000,45.1550833478393
"51",4,1,32,128,32768,1,"SS",125,47.2225453528392
"52",4,1,32,128,32768,1,"SS",1000,48.2099013909781
"53",4,1,32,128,32768,1,"SS",500,49.0989456432957
"54",4,1,32,128,32768,1,"SS",8000,49.5573234012198
"55",4,1,32,128,32768,1,"SS",4000,51.0838672133738
"56",4,1,32,128,32768,1,"SS",250,54.4968553877512
"57",4,1,32,128,262144,0,"SC",2000,31.5825672864437
"58",4,1,32,128,262144,0,"SC",500,31.6641375039909
"59",4,1,32,128,262144,0,"SC",1000,32.0277740853396
"60",4,1,32,128,262144,0,"SC",8000,32.4285894117805
"61",4,1,32,128,262144,0,"SC",250,32.5029836723293
"62",4,1,32,128,262144,0,"SC",4000,33.1414913509284
"63",4,1,32,128,262144,0,"SC",125,33.4558249972842
"64",4,1,32,128,32768,0,"SC",2000,5.60188308612882
"65",4,1,32,128,32768,0,"SC",8000,7.03243573631113
"66",4,1,32,128,32768,0,"SC",4000,7.48663062507151
"67",4,1,32,128,32768,0,"SC",1000,8.84980991057717
"68",4,1,32,128,32768,0,"SC",500,9.8718229588813
"69",4,1,32,128,32768,0,"SC",250,11.09551406416
"70",4,1,32,128,32768,0,"SC",125,11.7348059903663
"71",4,1,32,128,262144,0,"SS",8000,31.9882543128695
"72",4,1,32,128,262144,0,"SS",1000,32.6942678870611
"73",4,1,32,128,262144,0,"SS",4000,32.7502362718461
"74",4,1,32,128,262144,0,"SS",250,32.8792898201834
"75",4,1,32,128,262144,0,"SS",500,33.2889588910616
"76",4,1,32,128,262144,0,"SS",125,33.7163464189964
"77",4,1,32,128,262144,0,"SS",2000,34.4580719463679
"78",4,1,32,128,32768,0,"SS",8000,7.34000062002935
"79",4,1,32,128,32768,0,"SS",4000,7.52789373172358
"80",4,1,32,128,32768,0,"SS",2000,8.14593311902529
"81",4,1,32,128,32768,0,"SS",1000,9.0183019127563
"82",4,1,32,128,32768,0,"SS",500,10.3619157097621
"83",4,1,32,128,32768,0,"SS",250,11.4802228217076
"84",4,1,32,128,32768,0,"SS",125,12.4753751445206
"85",4,1,32,256,262144,1,"FP",250,75.537141737996
"86",4,1,32,256,262144,1,"FP",500,76.4872769875815
"87",4,1,32,256,262144,1,"FP",8000,78.7011693925465
"88",4,1,32,256,262144,1,"FP",2000,79.2335546366234
"89",4,1,32,256,262144,1,"FP",125,79.6535227334382
"90",4,1,32,256,262144,1,"FP",1000,80.6545780629393
"91",4,1,32,256,262144,1,"FP",4000,84.627085047328
"92",4,1,32,256,32768,1,"FP",8000,38.244345513759
"93",4,1,32,256,32768,1,"FP",2000,39.465101423191
"94",4,1,32,256,32768,1,"FP",125,40.0206747431046
"95",4,1,32,256,32768,1,"FP",500,40.1672589768332
"96",4,1,32,256,32768,1,"FP",4000,40.2057008464203
"97",4,1,32,256,32768,1,"FP",250,40.2198738808447
"98",4,1,32,256,32768,1,"FP",1000,41.3187667195492
"99",4,1,32,256,262144,0,"FP",2000,12.9127566118768
"100",4,1,32,256,262144,0,"FP",500,13.3668854341089
"101",4,1,32,256,262144,0,"FP",125,13.3729777697099
"102",4,1,32,256,262144,0,"FP",4000,13.4336924615864
"103",4,1,32,256,262144,0,"FP",250,13.6399616242877
"104",4,1,32,256,262144,0,"FP",1000,13.7400329411923
"105",4,1,32,256,262144,0,"FP",8000,13.8784886813742
"106",4,1,32,256,32768,0,"FP",4000,3.26962252463392
"107",4,1,32,256,32768,0,"FP",125,3.2945801903714
"108",4,1,32,256,32768,0,"FP",1000,3.29625847301792
"109",4,1,32,256,32768,0,"FP",8000,3.30689539359806
"110",4,1,32,256,32768,0,"FP",2000,3.32324028909594
"111",4,1,32,256,32768,0,"FP",250,3.33930919671515
"112",4,1,32,256,32768,0,"FP",500,3.36042070892078
"113",4,1,32,256,262144,1,"SC",500,57.80740846537
"114",4,1,32,256,262144,1,"SC",125,59.487129735824
"115",4,1,32,256,262144,1,"SC",250,60.4914844500998
"116",4,1,32,256,262144,1,"SC",1000,60.8120787991515
"117",4,1,32,256,262144,1,"SC",2000,60.9319524272591
"118",4,1,32,256,262144,1,"SC",4000,62.8602358824213
"119",4,1,32,256,262144,1,"SC",8000,63.3598771412382
"120",4,1,32,256,32768,1,"SC",250,38.1142030307119
"121",4,1,32,256,32768,1,"SC",8000,38.955394361549
"122",4,1,32,256,32768,1,"SC",125,39.2757008449645
"123",4,1,32,256,32768,1,"SC",4000,41.0037510023195
"124",4,1,32,256,32768,1,"SC",2000,41.5393240286329
"125",4,1,32,256,32768,1,"SC",500,42.2722838715963
"126",4,1,32,256,32768,1,"SC",1000,45.6532703223092
"127",4,1,32,256,262144,1,"SS",250,54.6226993055076
"128",4,1,32,256,262144,1,"SS",125,55.4044347895484
"129",4,1,32,256,262144,1,"SS",1000,56.1854625053943
"130",4,1,32,256,262144,1,"SS",500,56.7903733662022
"131",4,1,32,256,262144,1,"SS",8000,58.0896833232972
"132",4,1,32,256,262144,1,"SS",2000,59.1302710897726
"133",4,1,32,256,262144,1,"SS",4000,59.7863426449297
"134",4,1,32,256,32768,1,"SS",8000,33.6830748305361
"135",4,1,32,256,32768,1,"SS",125,34.9843569702659
"136",4,1,32,256,32768,1,"SS",2000,36.524566248483
"137",4,1,32,256,32768,1,"SS",500,37.8970820357099
"138",4,1,32,256,32768,1,"SS",1000,37.9110072425203
"139",4,1,32,256,32768,1,"SS",250,40.1180819325632
"140",4,1,32,256,32768,1,"SS",4000,42.3302776508639
"141",4,1,32,256,262144,0,"SC",4000,33.2233997855404
"142",4,1,32,256,262144,0,"SC",2000,34.0468260228802
"143",4,1,32,256,262144,0,"SC",500,34.3159513879696
"144",4,1,32,256,262144,0,"SC",125,34.9324420557265
"145",4,1,32,256,262144,0,"SC",1000,35.3136935399046
"146",4,1,32,256,262144,0,"SC",8000,36.5533150983218
"147",4,1,32,256,262144,0,"SC",250,36.7740800195362
"148",4,1,32,256,32768,0,"SC",8000,6.67470803855817
"149",4,1,32,256,32768,0,"SC",4000,6.89561941298683
"150",4,1,32,256,32768,0,"SC",2000,7.55701849790605
"151",4,1,32,256,32768,0,"SC",1000,8.70159868507287
"152",4,1,32,256,32768,0,"SC",500,9.69324064487502
"153",4,1,32,256,32768,0,"SC",250,11.0902927447392
"154",4,1,32,256,32768,0,"SC",125,11.2087007539603
"155",4,1,32,256,262144,0,"SS",1000,31.768881387903
"156",4,1,32,256,262144,0,"SS",8000,32.0229414353877
"157",4,1,32,256,262144,0,"SS",125,32.4359595690832
"158",4,1,32,256,262144,0,"SS",250,32.4667861448624
"159",4,1,32,256,262144,0,"SS",500,34.0018030252971
"160",4,1,32,256,262144,0,"SS",2000,34.0452695693805
"161",4,1,32,256,262144,0,"SS",4000,34.2805683745018
"162",4,1,32,256,32768,0,"SS",8000,7.02706810851948
"163",4,1,32,256,32768,0,"SS",4000,7.53523772240081
"164",4,1,32,256,32768,0,"SS",2000,7.97780704964685
"165",4,1,32,256,32768,0,"SS",1000,8.80809071301236
"166",4,1,32,256,32768,0,"SS",500,10.0157180262384
"167",4,1,32,256,32768,0,"SS",250,11.3815526594098
"168",4,1,32,256,32768,0,"SS",125,12.2533585300996
"169",4,1,32,512,262144,1,"FP",8000,64.6654478745339
"170",4,1,32,512,262144,1,"FP",4000,65.7197524277881
"171",4,1,32,512,262144,1,"FP",125,66.9878573060513
"172",4,1,32,512,262144,1,"FP",2000,67.2964979204791
"173",4,1,32,512,262144,1,"FP",250,68.0691413632873
"174",4,1,32,512,262144,1,"FP",500,70.109374732554
"175",4,1,32,512,262144,1,"FP",1000,71.7614366723717
"176",4,1,32,512,32768,1,"FP",500,37.1256953136967
"177",4,1,32,512,32768,1,"FP",8000,37.1637928844402
"178",4,1,32,512,32768,1,"FP",4000,37.1872764314741
"179",4,1,32,512,32768,1,"FP",1000,37.6440140870959
"180",4,1,32,512,32768,1,"FP",250,37.7187869210843
"181",4,1,32,512,32768,1,"FP",125,37.9750825605738
"182",4,1,32,512,32768,1,"FP",2000,38.2986999386622
"183",4,1,32,512,262144,0,"FP",4000,10.5530509808206
"184",4,1,32,512,262144,0,"FP",2000,11.2829601683409
"185",4,1,32,512,262144,0,"FP",250,11.3343577423265
"186",4,1,32,512,262144,0,"FP",1000,11.3761124413176
"187",4,1,32,512,262144,0,"FP",500,11.4580637942248
"188",4,1,32,512,262144,0,"FP",8000,11.6457430913818
"189",4,1,32,512,262144,0,"FP",125,12.0197951000554
"190",4,1,32,512,32768,0,"FP",4000,2.5846201220501
"191",4,1,32,512,32768,0,"FP",500,2.5881313704143
"192",4,1,32,512,32768,0,"FP",1000,2.61333323125
"193",4,1,32,512,32768,0,"FP",8000,2.63656587295048
"194",4,1,32,512,32768,0,"FP",2000,2.65801600130824
"195",4,1,32,512,32768,0,"FP",250,2.67648917283024
"196",4,1,32,512,32768,0,"FP",125,2.68772576798024
"197",4,1,32,512,262144,1,"SC",500,57.9417795453919
"198",4,1,32,512,262144,1,"SC",125,58.4871727320692
"199",4,1,32,512,262144,1,"SC",250,59.705382507285
"200",4,1,32,512,262144,1,"SC",1000,60.5553111265653
"201",4,1,32,512,262144,1,"SC",2000,60.9557190036597
"202",4,1,32,512,262144,1,"SC",4000,61.1979833949671
"203",4,1,32,512,262144,1,"SC",8000,63.2707746638238
"204",4,1,32,512,32768,1,"SC",4000,27.9395343729259
"205",4,1,32,512,32768,1,"SC",8000,28.8356480699264
"206",4,1,32,512,32768,1,"SC",250,29.8510725907247
"207",4,1,32,512,32768,1,"SC",1000,31.0511920140216
"208",4,1,32,512,32768,1,"SC",2000,33.4869240755941
"209",4,1,32,512,32768,1,"SC",500,33.6214744034364
"210",4,1,32,512,32768,1,"SC",125,33.6295348762743
"211",4,1,32,512,262144,1,"SS",125,54.6745834466825
"212",4,1,32,512,262144,1,"SS",500,54.9467133588526
"213",4,1,32,512,262144,1,"SS",1000,56.0970017960354
"214",4,1,32,512,262144,1,"SS",250,57.0446365925188
"215",4,1,32,512,262144,1,"SS",2000,57.1383055283961
"216",4,1,32,512,262144,1,"SS",8000,59.643620629878
"217",4,1,32,512,262144,1,"SS",4000,63.2531678702939
"218",4,1,32,512,32768,1,"SS",2000,32.0995336320199
"219",4,1,32,512,32768,1,"SS",4000,32.2298644000847
"220",4,1,32,512,32768,1,"SS",1000,32.5113166527631
"221",4,1,32,512,32768,1,"SS",125,32.7168047439367
"222",4,1,32,512,32768,1,"SS",8000,34.7022771674944
"223",4,1,32,512,32768,1,"SS",500,35.8806617599394
"224",4,1,32,512,32768,1,"SS",250,36.2808577730143
"225",4,1,32,512,262144,0,"SC",2000,33.2009402610035
"226",4,1,32,512,262144,0,"SC",500,33.2652489411727
"227",4,1,32,512,262144,0,"SC",125,33.5488013838881
"228",4,1,32,512,262144,0,"SC",4000,34.0029603163205
"229",4,1,32,512,262144,0,"SC",250,34.30764475841
"230",4,1,32,512,262144,0,"SC",1000,35.7288341984957
"231",4,1,32,512,262144,0,"SC",8000,36.0617980891473
"232",4,1,32,512,32768,0,"SC",8000,6.2382205232277
"233",4,1,32,512,32768,0,"SC",4000,6.61925560200562
"234",4,1,32,512,32768,0,"SC",2000,6.77017519646483
"235",4,1,32,512,32768,0,"SC",1000,7.75570293158376
"236",4,1,32,512,32768,0,"SC",500,8.8737161437724
"237",4,1,32,512,32768,0,"SC",250,9.51207645888802
"238",4,1,32,512,32768,0,"SC",125,10.0718479800117
"239",4,1,32,512,262144,0,"SS",2000,31.1247856181606
"240",4,1,32,512,262144,0,"SS",1000,31.1556336474758
"241",4,1,32,512,262144,0,"SS",8000,31.3084501476374
"242",4,1,32,512,262144,0,"SS",125,31.5834926901487
"243",4,1,32,512,262144,0,"SS",250,32.2163022669391
"244",4,1,32,512,262144,0,"SS",4000,32.2920411471243
"245",4,1,32,512,262144,0,"SS",500,32.4080630881181
"246",4,1,32,512,32768,0,"SS",8000,6.71370411906072
"247",4,1,32,512,32768,0,"SS",4000,7.01076707308348
"248",4,1,32,512,32768,0,"SS",2000,7.44242567840363
"249",4,1,32,512,32768,0,"SS",1000,8.33233654502594
"250",4,1,32,512,32768,0,"SS",500,9.36575586062859
"251",4,1,32,512,32768,0,"SS",250,10.4617819305921
"252",4,1,32,512,32768,0,"SS",125,10.8013060719901
"253",4,2,32,128,262144,1,"FP",8000,54.0799321465851
"254",4,2,32,128,262144,1,"FP",1000,55.5891376436449
"255",4,2,32,128,262144,1,"FP",2000,58.0159124503621
"256",4,2,32,128,262144,1,"FP",125,58.1403766463052
"257",4,2,32,128,262144,1,"FP",250,58.5658822565537
"258",4,2,32,128,262144,1,"FP",500,58.6764926871413
"259",4,2,32,128,262144,1,"FP",4000,59.2015908114968
"260",4,2,32,128,32768,1,"FP",8000,58.7268517489662
"261",4,2,32,128,32768,1,"FP",250,61.4937547657285
"262",4,2,32,128,32768,1,"FP",1000,61.7455726645596
"263",4,2,32,128,32768,1,"FP",4000,62.4132598921055
"264",4,2,32,128,32768,1,"FP",500,63.1914164581242
"265",4,2,32,128,32768,1,"FP",2000,63.9450971392531
"266",4,2,32,128,32768,1,"FP",125,66.403936638064
"267",4,2,32,128,262144,0,"FP",1000,18.8417217175223
"268",4,2,32,128,262144,0,"FP",2000,18.9528986228146
"269",4,2,32,128,262144,0,"FP",250,19.1182634492969
"270",4,2,32,128,262144,0,"FP",125,19.2117732147732
"271",4,2,32,128,262144,0,"FP",500,19.2743689479376
"272",4,2,32,128,262144,0,"FP",4000,19.289554772022
"273",4,2,32,128,262144,0,"FP",8000,19.2948704662236
"274",4,2,32,128,32768,0,"FP",2000,6.12140345129987
"275",4,2,32,128,32768,0,"FP",500,6.19450222803965
"276",4,2,32,128,32768,0,"FP",8000,6.24273953845793
"277",4,2,32,128,32768,0,"FP",125,6.44390108989399
"278",4,2,32,128,32768,0,"FP",1000,6.4705001431219
"279",4,2,32,128,32768,0,"FP",4000,6.52086525641281
"280",4,2,32,128,32768,0,"FP",250,6.54835607645398
"281",4,2,32,128,262144,1,"SC",125,57.4748529978201
"282",4,2,32,128,262144,1,"SC",250,59.9174233752555
"283",4,2,32,128,262144,1,"SC",500,62.1006609869426
"284",4,2,32,128,262144,1,"SC",2000,62.9085465468722
"285",4,2,32,128,262144,1,"SC",4000,65.2781356972433
"286",4,2,32,128,262144,1,"SC",1000,65.5750932475905
"287",4,2,32,128,262144,1,"SC",8000,66.4263791866174
"288",4,2,32,128,32768,1,"SC",4000,32.5170464423763
"289",4,2,32,128,32768,1,"SC",8000,33.8206613194352
"290",4,2,32,128,32768,1,"SC",250,34.8318572029917
"291",4,2,32,128,32768,1,"SC",1000,36.6724415018153
"292",4,2,32,128,32768,1,"SC",125,36.9009009009009
"293",4,2,32,128,32768,1,"SC",2000,39.3729170852122
"294",4,2,32,128,32768,1,"SC",500,39.4786048322738
"295",4,2,32,128,262144,1,"SS",125,57.6111648637157
"296",4,2,32,128,262144,1,"SS",250,58.1219624676292
"297",4,2,32,128,262144,1,"SS",500,60.6269980192615
"298",4,2,32,128,262144,1,"SS",8000,62.7506444733243
"299",4,2,32,128,262144,1,"SS",1000,63.9343873349975
"300",4,2,32,128,262144,1,"SS",2000,63.9939005813508
"301",4,2,32,128,262144,1,"SS",4000,65.7580834601082
"302",4,2,32,128,32768,1,"SS",250,40.9314298619564
"303",4,2,32,128,32768,1,"SS",125,42.6835044199207
"304",4,2,32,128,32768,1,"SS",1000,44.4074526894209
"305",4,2,32,128,32768,1,"SS",500,51.3285266306832
"306",4,2,32,128,32768,1,"SS",4000,52.4461533832314
"307",4,2,32,128,32768,1,"SS",8000,56.2816953816444
"308",4,2,32,128,32768,1,"SS",2000,60.3012796797201
"309",4,2,32,128,262144,0,"SC",125,33.7235361630586
"310",4,2,32,128,262144,0,"SC",2000,33.9577153487879
"311",4,2,32,128,262144,0,"SC",1000,35.4524602934176
"312",4,2,32,128,262144,0,"SC",250,35.5252111044039
"313",4,2,32,128,262144,0,"SC",500,36.2968686861526
"314",4,2,32,128,262144,0,"SC",8000,36.3115738709148
"315",4,2,32,128,262144,0,"SC",4000,37.3693646021978
"316",4,2,32,128,32768,0,"SC",8000,9.60508469170867
"317",4,2,32,128,32768,0,"SC",4000,9.7888982040622
"318",4,2,32,128,32768,0,"SC",2000,10.138480856563
"319",4,2,32,128,32768,0,"SC",1000,11.4233091843015
"320",4,2,32,128,32768,0,"SC",500,12.0172666058175
"321",4,2,32,128,32768,0,"SC",250,13.1353706412921
"322",4,2,32,128,32768,0,"SC",125,13.5773409560026
"323",4,2,32,128,262144,0,"SS",250,33.7480987856946
"324",4,2,32,128,262144,0,"SS",500,34.3890156648011
"325",4,2,32,128,262144,0,"SS",125,34.7528020295093
"326",4,2,32,128,262144,0,"SS",8000,35.7293951910118
"327",4,2,32,128,262144,0,"SS",1000,35.9611170421981
"328",4,2,32,128,262144,0,"SS",2000,35.9761201475934
"329",4,2,32,128,262144,0,"SS",4000,36.181540171138
"330",4,2,32,128,32768,0,"SS",8000,10.6524910860808
"331",4,2,32,128,32768,0,"SS",4000,10.9954447826534
"332",4,2,32,128,32768,0,"SS",2000,11.3863016897372
"333",4,2,32,128,32768,0,"SS",1000,12.0234186606628
"334",4,2,32,128,32768,0,"SS",500,13.0171215190879
"335",4,2,32,128,32768,0,"SS",250,13.929854882608
"336",4,2,32,128,32768,0,"SS",125,14.6895329904819
"337",4,2,32,256,262144,1,"FP",8000,56.1577385322566
"338",4,2,32,256,262144,1,"FP",4000,58.3879758402644
"339",4,2,32,256,262144,1,"FP",2000,59.1425656379961
"340",4,2,32,256,262144,1,"FP",500,59.5871090505196
"341",4,2,32,256,262144,1,"FP",1000,59.5909927981608
"342",4,2,32,256,262144,1,"FP",250,59.9320906203644
"343",4,2,32,256,262144,1,"FP",125,61.0961204858454
"344",4,2,32,256,32768,1,"FP",8000,56.7052269593483
"345",4,2,32,256,32768,1,"FP",1000,58.8741751362974
"346",4,2,32,256,32768,1,"FP",500,60.2742241753792
"347",4,2,32,256,32768,1,"FP",250,63.7054915035756
"348",4,2,32,256,32768,1,"FP",125,64.0174647646061
"349",4,2,32,256,32768,1,"FP",4000,64.0806515074833
"350",4,2,32,256,32768,1,"FP",2000,64.4577507455288
"351",4,2,32,256,262144,0,"FP",2000,17.6225100030117
"352",4,2,32,256,262144,0,"FP",250,17.7555909954532
"353",4,2,32,256,262144,0,"FP",500,17.8046005940373
"354",4,2,32,256,262144,0,"FP",1000,17.8289431301983
"355",4,2,32,256,262144,0,"FP",4000,17.89537149498
"356",4,2,32,256,262144,0,"FP",125,18.0281134697208
"357",4,2,32,256,262144,0,"FP",8000,18.3185814190729
"358",4,2,32,256,32768,0,"FP",8000,5.70111937358951
"359",4,2,32,256,32768,0,"FP",500,5.85777421455271
"360",4,2,32,256,32768,0,"FP",2000,5.87419358909786
"361",4,2,32,256,32768,0,"FP",4000,5.97886640050785
"362",4,2,32,256,32768,0,"FP",1000,5.9800107628514
"363",4,2,32,256,32768,0,"FP",250,6.13065173198395
"364",4,2,32,256,32768,0,"FP",125,6.1638522270603
"365",4,2,32,256,262144,1,"SC",250,60.6968400300402
"366",4,2,32,256,262144,1,"SC",500,62.4121186781064
"367",4,2,32,256,262144,1,"SC",1000,62.5494107512603
"368",4,2,32,256,262144,1,"SC",125,63.0232285833729
"369",4,2,32,256,262144,1,"SC",4000,63.16618659748
"370",4,2,32,256,262144,1,"SC",2000,64.0984010610038
"371",4,2,32,256,262144,1,"SC",8000,68.8218872419914
"372",4,2,32,256,32768,1,"SC",8000,26.1317650871707
"373",4,2,32,256,32768,1,"SC",4000,27.3036450632797
"374",4,2,32,256,32768,1,"SC",250,33.3520069830765
"375",4,2,32,256,32768,1,"SC",1000,33.435943149101
"376",4,2,32,256,32768,1,"SC",125,34.2735693546093
"377",4,2,32,256,32768,1,"SC",2000,34.3542310389135
"378",4,2,32,256,32768,1,"SC",500,39.5230219673125
"379",4,2,32,256,262144,1,"SS",2000,57.8083630184546
"380",4,2,32,256,262144,1,"SS",125,58.4704746229432
"381",4,2,32,256,262144,1,"SS",1000,59.2421003060167
"382",4,2,32,256,262144,1,"SS",250,59.7735783855472
"383",4,2,32,256,262144,1,"SS",500,60.3866603862181
"384",4,2,32,256,262144,1,"SS",4000,62.1511489844675
"385",4,2,32,256,262144,1,"SS",8000,63.4367117357452
"386",4,2,32,256,32768,1,"SS",8000,28.8897885600387
"387",4,2,32,256,32768,1,"SS",4000,29.7476173218865
"388",4,2,32,256,32768,1,"SS",2000,31.8598168060534
"389",4,2,32,256,32768,1,"SS",1000,33.8413389801661
"390",4,2,32,256,32768,1,"SS",250,36.4770442195106
"391",4,2,32,256,32768,1,"SS",125,37.0944940577265
"392",4,2,32,256,32768,1,"SS",500,37.824814592843
"393",4,2,32,256,262144,0,"SC",250,35.4693453411846
"394",4,2,32,256,262144,0,"SC",500,35.5157544800055
"395",4,2,32,256,262144,0,"SC",8000,35.7905240742828
"396",4,2,32,256,262144,0,"SC",4000,35.9273033471335
"397",4,2,32,256,262144,0,"SC",2000,36.6141232544378
"398",4,2,32,256,262144,0,"SC",1000,38.1446572801258
"399",4,2,32,256,262144,0,"SC",125,38.1474993177968
"400",4,2,32,256,32768,0,"SC",8000,10.2151083347653
"401",4,2,32,256,32768,0,"SC",4000,10.6356046078965
"402",4,2,32,256,32768,0,"SC",2000,11.5461885597455
"403",4,2,32,256,32768,0,"SC",1000,12.5671310614317
"404",4,2,32,256,32768,0,"SC",500,13.6557367430001
"405",4,2,32,256,32768,0,"SC",250,14.4487005870137
"406",4,2,32,256,32768,0,"SC",125,15.0028441671132
"407",4,2,32,256,262144,0,"SS",1000,34.1250580067667
"408",4,2,32,256,262144,0,"SS",2000,34.7515636506789
"409",4,2,32,256,262144,0,"SS",125,35.0373555008477
"410",4,2,32,256,262144,0,"SS",250,35.8253966726813
"411",4,2,32,256,262144,0,"SS",4000,35.9386831315438
"412",4,2,32,256,262144,0,"SS",500,36.0618615879545
"413",4,2,32,256,262144,0,"SS",8000,36.6461605631484
"414",4,2,32,256,32768,0,"SS",8000,11.3380567855059
"415",4,2,32,256,32768,0,"SS",4000,11.8732415514755
"416",4,2,32,256,32768,0,"SS",2000,12.5518306949259
"417",4,2,32,256,32768,0,"SS",1000,13.5230165306992
"418",4,2,32,256,32768,0,"SS",500,14.6808404637798
"419",4,2,32,256,32768,0,"SS",250,15.5882924920831
"420",4,2,32,256,32768,0,"SS",125,16.034756587619
"421",4,2,32,512,262144,1,"FP",4000,58.1456753586123
"422",4,2,32,512,262144,1,"FP",2000,59.4623707426554
"423",4,2,32,512,262144,1,"FP",125,60.6209862276697
"424",4,2,32,512,262144,1,"FP",1000,63.5910104419047
"425",4,2,32,512,262144,1,"FP",250,63.944578035256
"426",4,2,32,512,262144,1,"FP",8000,66.5276559168846
"427",4,2,32,512,262144,1,"FP",500,67.2472432898875
"428",4,2,32,512,32768,1,"FP",500,56.1348035645052
"429",4,2,32,512,32768,1,"FP",250,56.4663558535663
"430",4,2,32,512,32768,1,"FP",8000,57.4458422870402
"431",4,2,32,512,32768,1,"FP",4000,58.5331333832351
"432",4,2,32,512,32768,1,"FP",2000,58.7915382096915
"433",4,2,32,512,32768,1,"FP",1000,59.8335645261754
"434",4,2,32,512,32768,1,"FP",125,60.4937715488754
"435",4,2,32,512,262144,0,"FP",1000,15.277140608624
"436",4,2,32,512,262144,0,"FP",8000,15.5722142426452
"437",4,2,32,512,262144,0,"FP",250,15.715789764478
"438",4,2,32,512,262144,0,"FP",2000,16.3323570868912
"439",4,2,32,512,262144,0,"FP",125,16.5317408617331
"440",4,2,32,512,262144,0,"FP",4000,16.6243211870804
"441",4,2,32,512,262144,0,"FP",500,16.8161757158986
"442",4,2,32,512,32768,0,"FP",2000,5.21804644035853
"443",4,2,32,512,32768,0,"FP",4000,5.23169204748323
"444",4,2,32,512,32768,0,"FP",500,5.32060406522208
"445",4,2,32,512,32768,0,"FP",250,5.33507765364431
"446",4,2,32,512,32768,0,"FP",8000,5.38211435100846
"447",4,2,32,512,32768,0,"FP",125,5.53333904319166
"448",4,2,32,512,32768,0,"FP",1000,5.55984262496242
"449",4,2,32,512,262144,1,"SC",250,63.6994381821524
"450",4,2,32,512,262144,1,"SC",125,64.335054955739
"451",4,2,32,512,262144,1,"SC",8000,64.3552712639102
"452",4,2,32,512,262144,1,"SC",2000,65.3378746559233
"453",4,2,32,512,262144,1,"SC",1000,65.3549823839921
"454",4,2,32,512,262144,1,"SC",500,65.3981511610567
"455",4,2,32,512,262144,1,"SC",4000,66.3825635565236
"456",4,2,32,512,32768,1,"SC",4000,29.6300368711665
"457",4,2,32,512,32768,1,"SC",8000,29.8023773507753
"458",4,2,32,512,32768,1,"SC",1000,31.2877633985111
"459",4,2,32,512,32768,1,"SC",2000,32.0268975897727
"460",4,2,32,512,32768,1,"SC",500,34.3373832331966
"461",4,2,32,512,32768,1,"SC",125,35.9495652876053
"462",4,2,32,512,32768,1,"SC",250,35.9554664861871
"463",4,2,32,512,262144,1,"SS",250,58.6829573001255
"464",4,2,32,512,262144,1,"SS",500,60.2160338421167
"465",4,2,32,512,262144,1,"SS",4000,61.2507688122929
"466",4,2,32,512,262144,1,"SS",8000,61.8301015683199
"467",4,2,32,512,262144,1,"SS",125,61.9749022828582
"468",4,2,32,512,262144,1,"SS",1000,62.1827480523865
"469",4,2,32,512,262144,1,"SS",2000,63.3918051543914
"470",4,2,32,512,32768,1,"SS",2000,30.9402247849632
"471",4,2,32,512,32768,1,"SS",4000,31.8168789474952
"472",4,2,32,512,32768,1,"SS",8000,32.6887102643827
"473",4,2,32,512,32768,1,"SS",1000,33.0527027604978
"474",4,2,32,512,32768,1,"SS",125,35.0517475384191
"475",4,2,32,512,32768,1,"SS",500,36.3236816037757
"476",4,2,32,512,32768,1,"SS",250,37.7700545065411
"477",4,2,32,512,262144,0,"SC",125,35.7464203398528
"478",4,2,32,512,262144,0,"SC",8000,36.4507181129634
"479",4,2,32,512,262144,0,"SC",4000,37.0733084850449
"480",4,2,32,512,262144,0,"SC",1000,37.9209400245523
"481",4,2,32,512,262144,0,"SC",250,38.3406438906767
"482",4,2,32,512,262144,0,"SC",2000,38.3460997635199
"483",4,2,32,512,262144,0,"SC",500,38.5105010690049
"484",4,2,32,512,32768,0,"SC",8000,10.152815237353
"485",4,2,32,512,32768,0,"SC",4000,10.4557011139814
"486",4,2,32,512,32768,0,"SC",1000,11.4415613038352
"487",4,2,32,512,32768,0,"SC",2000,11.4481233155174
"488",4,2,32,512,32768,0,"SC",500,12.7987561208895
"489",4,2,32,512,32768,0,"SC",250,13.8904997256491
"490",4,2,32,512,32768,0,"SC",125,14.1504626710726
"491",4,2,32,512,262144,0,"SS",8000,34.2525035017666
"492",4,2,32,512,262144,0,"SS",250,34.2984517966912
"493",4,2,32,512,262144,0,"SS",4000,34.3356849700904
"494",4,2,32,512,262144,0,"SS",125,34.9079405337779
"495",4,2,32,512,262144,0,"SS",2000,35.0588279601
"496",4,2,32,512,262144,0,"SS",500,35.7984380134664
"497",4,2,32,512,262144,0,"SS",1000,36.1195790869753
"498",4,2,32,512,32768,0,"SS",8000,10.9026058718624
"499",4,2,32,512,32768,0,"SS",4000,11.2530007544126
"500",4,2,32,512,32768,0,"SS",2000,12.0498054703646
"501",4,2,32,512,32768,0,"SS",1000,12.7528264977332
"502",4,2,32,512,32768,0,"SS",500,13.9322002536096
"503",4,2,32,512,32768,0,"SS",250,15.0817177988203
"504",4,2,32,512,32768,0,"SS",125,15.4576887283409
"505",4,4,32,128,262144,1,"FP",250,57.2311310525833
"506",4,4,32,128,262144,1,"FP",4000,57.9159477840222
"507",4,4,32,128,262144,1,"FP",2000,58.3798286289777
"508",4,4,32,128,262144,1,"FP",1000,58.5097888190879
"509",4,4,32,128,262144,1,"FP",500,58.7963907973313
"510",4,4,32,128,262144,1,"FP",125,59.1657171647603
"511",4,4,32,128,262144,1,"FP",8000,59.4651763593985
"512",4,4,32,128,32768,1,"FP",250,55.7683174960025
"513",4,4,32,128,32768,1,"FP",2000,58.4235539350246
"514",4,4,32,128,32768,1,"FP",8000,63.3568879888581
"515",4,4,32,128,32768,1,"FP",125,68.800524335246
"516",4,4,32,128,32768,1,"FP",4000,70.5267310257524
"517",4,4,32,128,32768,1,"FP",500,71.138887388496
"518",4,4,32,128,32768,1,"FP",1000,72.1292861102522
"519",4,4,32,128,262144,0,"FP",1000,20.640458927704
"520",4,4,32,128,262144,0,"FP",125,20.9873051398402
"521",4,4,32,128,262144,0,"FP",500,21.4885320174405
"522",4,4,32,128,262144,0,"FP",4000,21.5642732218688
"523",4,4,32,128,262144,0,"FP",2000,21.6834992593942
"524",4,4,32,128,262144,0,"FP",250,21.7824488556503
"525",4,4,32,128,262144,0,"FP",8000,21.8846673754962
"526",4,4,32,128,32768,0,"FP",250,9.03261886847043
"527",4,4,32,128,32768,0,"FP",8000,9.13437522300721
"528",4,4,32,128,32768,0,"FP",500,9.18418597976609
"529",4,4,32,128,32768,0,"FP",2000,9.26450338100089
"530",4,4,32,128,32768,0,"FP",125,9.26499584590701
"531",4,4,32,128,32768,0,"FP",4000,9.28118197302611
"532",4,4,32,128,32768,0,"FP",1000,9.33935679284299
"533",4,4,32,128,262144,1,"SC",125,61.1102764479115
"534",4,4,32,128,262144,1,"SC",250,62.8887556870105
"535",4,4,32,128,262144,1,"SC",500,65.6461489863071
"536",4,4,32,128,262144,1,"SC",1000,65.9622852260102
"537",4,4,32,128,262144,1,"SC",2000,69.9957004594151
"538",4,4,32,128,262144,1,"SC",4000,71.4458772187948
"539",4,4,32,128,262144,1,"SC",8000,73.4725125626158
"540",4,4,32,128,32768,1,"SC",2000,32.7332503813951
"541",4,4,32,128,32768,1,"SC",250,34.0472505348976
"542",4,4,32,128,32768,1,"SC",500,34.3243770955175
"543",4,4,32,128,32768,1,"SC",8000,34.747318450351
"544",4,4,32,128,32768,1,"SC",4000,35.1870687522336
"545",4,4,32,128,32768,1,"SC",125,38.4832922757193
"546",4,4,32,128,32768,1,"SC",1000,39.8977619849137
"547",4,4,32,128,262144,1,"SS",125,59.2220741027769
"548",4,4,32,128,262144,1,"SS",250,62.7607593868016
"549",4,4,32,128,262144,1,"SS",500,64.2365309513123
"550",4,4,32,128,262144,1,"SS",4000,65.8503008519543
"551",4,4,32,128,262144,1,"SS",1000,65.8567910635422
"552",4,4,32,128,262144,1,"SS",2000,71.0453325072463
"553",4,4,32,128,262144,1,"SS",8000,71.098545430686
"554",4,4,32,128,32768,1,"SS",500,40.7209679183195
"555",4,4,32,128,32768,1,"SS",1000,42.6069858189263
"556",4,4,32,128,32768,1,"SS",250,43.1543103738916
"557",4,4,32,128,32768,1,"SS",125,44.018729453538
"558",4,4,32,128,32768,1,"SS",2000,48.2275890067472
"559",4,4,32,128,32768,1,"SS",4000,49.1972063289515
"560",4,4,32,128,32768,1,"SS",8000,62.4839823775643
"561",4,4,32,128,262144,0,"SC",500,34.5312484192849
"562",4,4,32,128,262144,0,"SC",125,35.0244726662038
"563",4,4,32,128,262144,0,"SC",4000,35.5226847379075
"564",4,4,32,128,262144,0,"SC",1000,35.7176491926904
"565",4,4,32,128,262144,0,"SC",8000,35.7304548916092
"566",4,4,32,128,262144,0,"SC",2000,35.8211983485168
"567",4,4,32,128,262144,0,"SC",250,35.8646390069978
"568",4,4,32,128,32768,0,"SC",8000,12.6087799712485
"569",4,4,32,128,32768,0,"SC",2000,13.1229643546199
"570",4,4,32,128,32768,0,"SC",4000,13.2160665552852
"571",4,4,32,128,32768,0,"SC",1000,13.7558418669257
"572",4,4,32,128,32768,0,"SC",500,14.0430321566923
"573",4,4,32,128,32768,0,"SC",250,14.4994845886338
"574",4,4,32,128,32768,0,"SC",125,14.9692775313556
"575",4,4,32,128,262144,0,"SS",500,35.2144159015097
"576",4,4,32,128,262144,0,"SS",4000,35.5837569184606
"577",4,4,32,128,262144,0,"SS",250,35.7183344233704
"578",4,4,32,128,262144,0,"SS",125,35.8360849077238
"579",4,4,32,128,262144,0,"SS",8000,36.4113163099762
"580",4,4,32,128,262144,0,"SS",1000,36.5357735709705
"581",4,4,32,128,262144,0,"SS",2000,37.3267962837237
"582",4,4,32,128,32768,0,"SS",2000,14.8752292931615
"583",4,4,32,128,32768,0,"SS",1000,14.9701419495467
"584",4,4,32,128,32768,0,"SS",4000,15.083339501447
"585",4,4,32,128,32768,0,"SS",8000,15.1189993702878
"586",4,4,32,128,32768,0,"SS",500,15.4841597348338
"587",4,4,32,128,32768,0,"SS",250,16.0503265512605
"588",4,4,32,128,32768,0,"SS",125,16.7278646774556
"589",4,4,32,256,262144,1,"FP",8000,56.7639766048157
"590",4,4,32,256,262144,1,"FP",250,57.1088451925046
"591",4,4,32,256,262144,1,"FP",2000,58.8417399973711
"592",4,4,32,256,262144,1,"FP",1000,58.9995570711963
"593",4,4,32,256,262144,1,"FP",4000,59.7816306636564
"594",4,4,32,256,262144,1,"FP",125,60.3830995134414
"595",4,4,32,256,262144,1,"FP",500,60.8862668022536
"596",4,4,32,256,32768,1,"FP",8000,60.932650379877
"597",4,4,32,256,32768,1,"FP",4000,66.9906620316194
"598",4,4,32,256,32768,1,"FP",2000,67.3428130618751
"599",4,4,32,256,32768,1,"FP",250,72.4064960081853
"600",4,4,32,256,32768,1,"FP",500,72.5857099718872
"601",4,4,32,256,32768,1,"FP",1000,75.099025839492
"602",4,4,32,256,32768,1,"FP",125,76.6150799277095
"603",4,4,32,256,262144,0,"FP",250,18.4620516044992
"604",4,4,32,256,262144,0,"FP",500,18.7752538853454
"605",4,4,32,256,262144,0,"FP",2000,19.44516709741
"606",4,4,32,256,262144,0,"FP",1000,19.6833082566577
"607",4,4,32,256,262144,0,"FP",125,19.7795660085068
"608",4,4,32,256,262144,0,"FP",8000,19.8080514699837
"609",4,4,32,256,262144,0,"FP",4000,19.8937413881616
"610",4,4,32,256,32768,0,"FP",4000,8.35966819301364
"611",4,4,32,256,32768,0,"FP",1000,8.44546878743605
"612",4,4,32,256,32768,0,"FP",2000,8.45478311396515
"613",4,4,32,256,32768,0,"FP",500,8.60154899281447
"614",4,4,32,256,32768,0,"FP",8000,8.62992920971887
"615",4,4,32,256,32768,0,"FP",250,8.71530898493886
"616",4,4,32,256,32768,0,"FP",125,8.82607588270455
"617",4,4,32,256,262144,1,"SC",125,59.9932390431781
"618",4,4,32,256,262144,1,"SC",250,61.3402944184376
"619",4,4,32,256,262144,1,"SC",500,63.7620281555432
"620",4,4,32,256,262144,1,"SC",2000,64.2345162040036
"621",4,4,32,256,262144,1,"SC",1000,65.1871911625521
"622",4,4,32,256,262144,1,"SC",8000,65.2513891010745
"623",4,4,32,256,262144,1,"SC",4000,65.8002221078786
"624",4,4,32,256,32768,1,"SC",8000,29.4136655775376
"625",4,4,32,256,32768,1,"SC",4000,30.369332905276
"626",4,4,32,256,32768,1,"SC",2000,31.9663604004224
"627",4,4,32,256,32768,1,"SC",1000,34.1150533505797
"628",4,4,32,256,32768,1,"SC",125,34.5153026830255
"629",4,4,32,256,32768,1,"SC",250,36.309417223216
"630",4,4,32,256,32768,1,"SC",500,36.9647733651481
"631",4,4,32,256,262144,1,"SS",125,59.1181352385076
"632",4,4,32,256,262144,1,"SS",500,59.7369822673335
"633",4,4,32,256,262144,1,"SS",250,59.842402345191
"634",4,4,32,256,262144,1,"SS",1000,61.2197344564125
"635",4,4,32,256,262144,1,"SS",8000,62.0612266728728
"636",4,4,32,256,262144,1,"SS",2000,62.9392765056409
"637",4,4,32,256,262144,1,"SS",4000,64.8654161387246
"638",4,4,32,256,32768,1,"SS",4000,33.0124239872012
"639",4,4,32,256,32768,1,"SS",8000,33.4008526350468
"640",4,4,32,256,32768,1,"SS",2000,35.0112401808686
"641",4,4,32,256,32768,1,"SS",500,35.6826750855478
"642",4,4,32,256,32768,1,"SS",250,36.5548483366473
"643",4,4,32,256,32768,1,"SS",125,36.8100695670773
"644",4,4,32,256,32768,1,"SS",1000,37.3896612474783
"645",4,4,32,256,262144,0,"SC",250,35.5632115247032
"646",4,4,32,256,262144,0,"SC",4000,36.1891803539401
"647",4,4,32,256,262144,0,"SC",125,36.5999896347686
"648",4,4,32,256,262144,0,"SC",8000,36.6723430010081
"649",4,4,32,256,262144,0,"SC",1000,37.0133079830729
"650",4,4,32,256,262144,0,"SC",2000,37.1977456131907
"651",4,4,32,256,262144,0,"SC",500,37.4413037178959
"652",4,4,32,256,32768,0,"SC",8000,12.7102221403009
"653",4,4,32,256,32768,0,"SC",4000,13.1511902051887
"654",4,4,32,256,32768,0,"SC",2000,13.5770799267713
"655",4,4,32,256,32768,0,"SC",1000,13.940223125251
"656",4,4,32,256,32768,0,"SC",500,15.3808602917707
"657",4,4,32,256,32768,0,"SC",250,15.7546096464675
"658",4,4,32,256,32768,0,"SC",125,16.1296674043679
"659",4,4,32,256,262144,0,"SS",125,34.7806003050096
"660",4,4,32,256,262144,0,"SS",250,35.4985791035049
"661",4,4,32,256,262144,0,"SS",8000,36.1571387839161
"662",4,4,32,256,262144,0,"SS",1000,36.5350240296276
"663",4,4,32,256,262144,0,"SS",4000,36.6741489332174
"664",4,4,32,256,262144,0,"SS",2000,36.7738819249547
"665",4,4,32,256,262144,0,"SS",500,36.816951617528
"666",4,4,32,256,32768,0,"SS",8000,14.3484637930739
"667",4,4,32,256,32768,0,"SS",4000,14.3967680380502
"668",4,4,32,256,32768,0,"SS",2000,14.6222159868372
"669",4,4,32,256,32768,0,"SS",1000,15.5603295173297
"670",4,4,32,256,32768,0,"SS",500,16.2183201288913
"671",4,4,32,256,32768,0,"SS",250,16.8835365733016
"672",4,4,32,256,32768,0,"SS",125,17.4012787560805
"673",4,4,32,512,262144,1,"FP",4000,55.0098960063165
"674",4,4,32,512,262144,1,"FP",8000,55.6465109732719
"675",4,4,32,512,262144,1,"FP",1000,57.1357231484071
"676",4,4,32,512,262144,1,"FP",125,57.3699277651542
"677",4,4,32,512,262144,1,"FP",2000,57.6685679272655
"678",4,4,32,512,262144,1,"FP",250,57.6954634547272
"679",4,4,32,512,262144,1,"FP",500,58.3963501140625
"680",4,4,32,512,32768,1,"FP",8000,47.1512842508725
"681",4,4,32,512,32768,1,"FP",4000,56.7061376087398
"682",4,4,32,512,32768,1,"FP",2000,59.9335638785561
"683",4,4,32,512,32768,1,"FP",500,65.6512099953967
"684",4,4,32,512,32768,1,"FP",250,66.9048081460524
"685",4,4,32,512,32768,1,"FP",1000,68.1595425855697
"686",4,4,32,512,32768,1,"FP",125,70.1468957515402
"687",4,4,32,512,262144,0,"FP",2000,16.7780149019576
"688",4,4,32,512,262144,0,"FP",1000,17.7725478353158
"689",4,4,32,512,262144,0,"FP",500,17.9250212465767
"690",4,4,32,512,262144,0,"FP",125,17.9914417663238
"691",4,4,32,512,262144,0,"FP",4000,18.0656998694471
"692",4,4,32,512,262144,0,"FP",8000,18.2661922927015
"693",4,4,32,512,262144,0,"FP",250,18.3883689974613
"694",4,4,32,512,32768,0,"FP",500,7.58125276129919
"695",4,4,32,512,32768,0,"FP",125,7.59016517689291
"696",4,4,32,512,32768,0,"FP",8000,7.66147646527608
"697",4,4,32,512,32768,0,"FP",2000,7.68199395755661
"698",4,4,32,512,32768,0,"FP",4000,7.70457615332106
"699",4,4,32,512,32768,0,"FP",1000,7.73437263965679
"700",4,4,32,512,32768,0,"FP",250,7.91280613103383
"701",4,4,32,512,262144,1,"SC",1000,60.797970392754
"702",4,4,32,512,262144,1,"SC",500,61.2414643587685
"703",4,4,32,512,262144,1,"SC",125,62.6667549957842
"704",4,4,32,512,262144,1,"SC",2000,63.4729464386579
"705",4,4,32,512,262144,1,"SC",250,63.6842356484636
"706",4,4,32,512,262144,1,"SC",4000,64.1071791902086
"707",4,4,32,512,262144,1,"SC",8000,67.1446020313537
"708",4,4,32,512,32768,1,"SC",8000,30.8349681788549
"709",4,4,32,512,32768,1,"SC",2000,31.2512636695667
"710",4,4,32,512,32768,1,"SC",4000,33.442713432034
"711",4,4,32,512,32768,1,"SC",1000,33.8964536166424
"712",4,4,32,512,32768,1,"SC",500,34.0999721938703
"713",4,4,32,512,32768,1,"SC",250,35.5326998866181
"714",4,4,32,512,32768,1,"SC",125,35.9584967311655
"715",4,4,32,512,262144,1,"SS",500,58.2251479474569
"716",4,4,32,512,262144,1,"SS",125,59.9132077613348
"717",4,4,32,512,262144,1,"SS",250,60.2689028940845
"718",4,4,32,512,262144,1,"SS",2000,60.8582499033489
"719",4,4,32,512,262144,1,"SS",4000,61.376463085414
"720",4,4,32,512,262144,1,"SS",1000,62.0667469069288
"721",4,4,32,512,262144,1,"SS",8000,62.1188377650382
"722",4,4,32,512,32768,1,"SS",8000,31.7763491178107
"723",4,4,32,512,32768,1,"SS",4000,32.1539622143843
"724",4,4,32,512,32768,1,"SS",2000,32.4959439571904
"725",4,4,32,512,32768,1,"SS",1000,34.1227552791968
"726",4,4,32,512,32768,1,"SS",500,35.2781079358517
"727",4,4,32,512,32768,1,"SS",125,36.4929686887478
"728",4,4,32,512,32768,1,"SS",250,37.260210170873
"729",4,4,32,512,262144,0,"SC",2000,34.8758696616547
"730",4,4,32,512,262144,0,"SC",500,36.6240101860528
"731",4,4,32,512,262144,0,"SC",125,37.1756659127461
"732",4,4,32,512,262144,0,"SC",4000,37.4033526042176
"733",4,4,32,512,262144,0,"SC",1000,38.2734345361682
"734",4,4,32,512,262144,0,"SC",250,39.5453062154485
"735",4,4,32,512,262144,0,"SC",8000,39.665554300943
"736",4,4,32,512,32768,0,"SC",8000,13.7639357329044
"737",4,4,32,512,32768,0,"SC",4000,14.224089133921
"738",4,4,32,512,32768,0,"SC",2000,14.2376413901027
"739",4,4,32,512,32768,0,"SC",1000,15.4457917193813
"740",4,4,32,512,32768,0,"SC",500,15.7869562586455
"741",4,4,32,512,32768,0,"SC",250,16.6539065323891
"742",4,4,32,512,32768,0,"SC",125,16.8937938816915
"743",4,4,32,512,262144,0,"SS",2000,35.6685058239982
"744",4,4,32,512,262144,0,"SS",125,36.1259504450036
"745",4,4,32,512,262144,0,"SS",4000,36.1762994012716
"746",4,4,32,512,262144,0,"SS",250,36.506791992392
"747",4,4,32,512,262144,0,"SS",500,36.6826556236589
"748",4,4,32,512,262144,0,"SS",8000,36.861515533853
"749",4,4,32,512,262144,0,"SS",1000,37.1311811269168
"750",4,4,32,512,32768,0,"SS",8000,14.9442800184468
"751",4,4,32,512,32768,0,"SS",4000,15.4234811203562
"752",4,4,32,512,32768,0,"SS",2000,15.7738243090191
"753",4,4,32,512,32768,0,"SS",1000,16.4676556909098
"754",4,4,32,512,32768,0,"SS",500,16.6209212600087
"755",4,4,32,512,32768,0,"SS",250,17.6176210620036
"756",4,4,32,512,32768,0,"SS",125,18.3388314009506
"757",4,8,32,128,262144,1,"FP",1000,62.3993589440858
"758",4,8,32,128,262144,1,"FP",4000,62.5779072792803
"759",4,8,32,128,262144,1,"FP",2000,62.9317048115867
"760",4,8,32,128,262144,1,"FP",125,63.3651504976469
"761",4,8,32,128,262144,1,"FP",250,63.9855432663183
"762",4,8,32,128,262144,1,"FP",8000,64.4532067515993
"763",4,8,32,128,262144,1,"FP",500,64.6665913065114
"764",4,8,32,128,32768,1,"FP",8000,55.2025506381649
"765",4,8,32,128,32768,1,"FP",500,56.0122275130256
"766",4,8,32,128,32768,1,"FP",4000,56.5052184555755
"767",4,8,32,128,32768,1,"FP",125,57.5571594867295
"768",4,8,32,128,32768,1,"FP",2000,58.9473126731829
"769",4,8,32,128,32768,1,"FP",1000,59.7185704050744
"770",4,8,32,128,32768,1,"FP",250,59.7633918292821
"771",4,8,32,128,262144,0,"FP",1000,21.837378704184
"772",4,8,32,128,262144,0,"FP",250,23.4311940355713
"773",4,8,32,128,262144,0,"FP",4000,23.4582876595433
"774",4,8,32,128,262144,0,"FP",500,23.4595774755983
"775",4,8,32,128,262144,0,"FP",2000,23.7320365691216
"776",4,8,32,128,262144,0,"FP",125,24.0084920662367
"777",4,8,32,128,262144,0,"FP",8000,24.0347800166295
"778",4,8,32,128,32768,0,"FP",4000,9.81232726315363
"779",4,8,32,128,32768,0,"FP",1000,10.0963566104145
"780",4,8,32,128,32768,0,"FP",2000,10.1809909763014
"781",4,8,32,128,32768,0,"FP",250,10.5952261470315
"782",4,8,32,128,32768,0,"FP",125,10.7027410357358
"783",4,8,32,128,32768,0,"FP",8000,10.7099779289737
"784",4,8,32,128,32768,0,"FP",500,10.7824176044027
"785",4,8,32,128,262144,1,"SC",125,62.9006441634084
"786",4,8,32,128,262144,1,"SC",250,64.1383182920417
"787",4,8,32,128,262144,1,"SC",500,67.5937260612429
"788",4,8,32,128,262144,1,"SC",1000,69.557621339925
"789",4,8,32,128,262144,1,"SC",2000,75.4089916017286
"790",4,8,32,128,262144,1,"SC",4000,77.0007457567344
"791",4,8,32,128,262144,1,"SC",8000,77.1987411478714
"792",4,8,32,128,32768,1,"SC",2000,34.6197114291534
"793",4,8,32,128,32768,1,"SC",4000,37.5294344013707
"794",4,8,32,128,32768,1,"SC",8000,37.8606863543468
"795",4,8,32,128,32768,1,"SC",1000,41.6736911322231
"796",4,8,32,128,32768,1,"SC",250,42.0004821442067
"797",4,8,32,128,32768,1,"SC",125,42.606037387838
"798",4,8,32,128,32768,1,"SC",500,48.1513230563488
"799",4,8,32,128,262144,1,"SS",125,62.6249709121076
"800",4,8,32,128,262144,1,"SS",250,65.7724968514789
"801",4,8,32,128,262144,1,"SS",1000,66.9317355124494
"802",4,8,32,128,262144,1,"SS",500,69.0938466835207
"803",4,8,32,128,262144,1,"SS",4000,70.3360831834084
"804",4,8,32,128,262144,1,"SS",8000,70.4472436827948
"805",4,8,32,128,262144,1,"SS",2000,73.5262307879962
"806",4,8,32,128,32768,1,"SS",125,47.5967808958421
"807",4,8,32,128,32768,1,"SS",500,51.4173991909543
"808",4,8,32,128,32768,1,"SS",2000,51.8904543860609
"809",4,8,32,128,32768,1,"SS",1000,52.1087837013495
"810",4,8,32,128,32768,1,"SS",250,54.3423389574205
"811",4,8,32,128,32768,1,"SS",8000,54.6943100825542
"812",4,8,32,128,32768,1,"SS",4000,61.5609457119931
"813",4,8,32,128,262144,0,"SC",4000,36.0965335518866
"814",4,8,32,128,262144,0,"SC",500,36.2887328623004
"815",4,8,32,128,262144,0,"SC",250,36.7193221986053
"816",4,8,32,128,262144,0,"SC",125,36.8675872162361
"817",4,8,32,128,262144,0,"SC",8000,36.8788400452342
"818",4,8,32,128,262144,0,"SC",1000,37.2274628884185
"819",4,8,32,128,262144,0,"SC",2000,38.4553998103518
"820",4,8,32,128,32768,0,"SC",4000,15.5906183758428
"821",4,8,32,128,32768,0,"SC",8000,15.8933099486455
"822",4,8,32,128,32768,0,"SC",2000,16.1306138651605
"823",4,8,32,128,32768,0,"SC",1000,16.2700575330843
"824",4,8,32,128,32768,0,"SC",500,16.4427928501149
"825",4,8,32,128,32768,0,"SC",250,16.9474203800178
"826",4,8,32,128,32768,0,"SC",125,17.030958423838
"827",4,8,32,128,262144,0,"SS",1000,35.6039237331966
"828",4,8,32,128,262144,0,"SS",4000,36.0782517550273
"829",4,8,32,128,262144,0,"SS",125,36.7234702962175
"830",4,8,32,128,262144,0,"SS",250,37.456882519268
"831",4,8,32,128,262144,0,"SS",2000,37.5183653130988
"832",4,8,32,128,262144,0,"SS",8000,37.9816323199952
"833",4,8,32,128,262144,0,"SS",500,38.0066548761907
"834",4,8,32,128,32768,0,"SS",8000,18.3573982869715
"835",4,8,32,128,32768,0,"SS",4000,18.3938025100176
"836",4,8,32,128,32768,0,"SS",125,18.5922371962761
"837",4,8,32,128,32768,0,"SS",1000,18.5984843325024
"838",4,8,32,128,32768,0,"SS",2000,18.6040765456009
"839",4,8,32,128,32768,0,"SS",500,18.7427443935354
"840",4,8,32,128,32768,0,"SS",250,19.1002370742317
"841",4,8,32,256,262144,1,"FP",8000,55.501422698212
"842",4,8,32,256,262144,1,"FP",500,55.6188630504991
"843",4,8,32,256,262144,1,"FP",4000,56.2743263498763
"844",4,8,32,256,262144,1,"FP",125,56.3841411894135
"845",4,8,32,256,262144,1,"FP",250,56.5279812817306
"846",4,8,32,256,262144,1,"FP",2000,57.2679310072431
"847",4,8,32,256,262144,1,"FP",1000,57.4368363072602
"848",4,8,32,256,32768,1,"FP",500,49.0656444657403
"849",4,8,32,256,32768,1,"FP",250,52.4484635583696
"850",4,8,32,256,32768,1,"FP",1000,53.1342597409134
"851",4,8,32,256,32768,1,"FP",8000,53.9885419337151
"852",4,8,32,256,32768,1,"FP",4000,56.7207826692529
"853",4,8,32,256,32768,1,"FP",2000,58.3212507060559
"854",4,8,32,256,262144,0,"FP",500,18.831802942837
"855",4,8,32,256,262144,0,"FP",250,19.9166089250331
"856",4,8,32,256,262144,0,"FP",8000,19.9552274072576
"857",4,8,32,256,262144,0,"FP",4000,20.3310748765294
"858",4,8,32,256,262144,0,"FP",1000,20.336616684069
"859",4,8,32,256,262144,0,"FP",125,20.3703869478337
"860",4,8,32,256,262144,0,"FP",2000,20.568175769524
"861",4,8,32,256,32768,0,"FP",1000,10.1789492073914
"862",4,8,32,256,32768,0,"FP",4000,10.2699754909643
"863",4,8,32,256,32768,0,"FP",8000,10.2805103510383
"864",4,8,32,256,32768,0,"FP",250,10.3374694147443
"865",4,8,32,256,32768,0,"FP",500,10.3603719818714
"866",4,8,32,256,32768,0,"FP",2000,10.4254425595276
"867",4,8,32,256,262144,1,"SC",125,62.5497737228339
"868",4,8,32,256,262144,1,"SC",250,62.6981896510025
"869",4,8,32,256,262144,1,"SC",500,65.07221729291
"870",4,8,32,256,262144,1,"SC",8000,66.9723260080717
"871",4,8,32,256,262144,1,"SC",1000,67.6268602133317
"872",4,8,32,256,262144,1,"SC",2000,67.6732288440616
"873",4,8,32,256,262144,1,"SC",4000,70.8645492307061
"874",4,8,32,256,32768,1,"SC",8000,34.0380268581306
"875",4,8,32,256,32768,1,"SC",500,34.0797145823904
"876",4,8,32,256,32768,1,"SC",1000,34.5723444877537
"877",4,8,32,256,32768,1,"SC",4000,34.8189178253138
"878",4,8,32,256,32768,1,"SC",2000,35.6065545268831
"879",4,8,32,256,32768,1,"SC",250,36.4053939710677
"880",4,8,32,256,32768,1,"SC",125,37.4547931802283
"881",4,8,32,256,262144,1,"SS",125,61.3148319021549
"882",4,8,32,256,262144,1,"SS",250,61.3340393136817
"883",4,8,32,256,262144,1,"SS",500,62.4050345749183
"884",4,8,32,256,262144,1,"SS",2000,64.3955699117988
"885",4,8,32,256,262144,1,"SS",8000,65.7295815050823
"886",4,8,32,256,262144,1,"SS",1000,66.2184954918558
"887",4,8,32,256,262144,1,"SS",4000,69.3639347504846
"888",4,8,32,256,32768,1,"SS",125,38.2715749463207
"889",4,8,32,256,32768,1,"SS",1000,40.0295921887567
"890",4,8,32,256,32768,1,"SS",250,40.1064151660216
"891",4,8,32,256,32768,1,"SS",2000,41.9585462674923
"892",4,8,32,256,32768,1,"SS",500,42.3554424054913
"893",4,8,32,256,32768,1,"SS",8000,42.7981640256354
"894",4,8,32,256,32768,1,"SS",4000,43.9913705599567
"895",4,8,32,256,262144,0,"SC",125,35.9525314233551
"896",4,8,32,256,262144,0,"SC",250,36.0919852177943
"897",4,8,32,256,262144,0,"SC",4000,36.3707723194981
"898",4,8,32,256,262144,0,"SC",500,37.5520397376858
"899",4,8,32,256,262144,0,"SC",2000,37.5527627318168
"900",4,8,32,256,262144,0,"SC",8000,37.9444414079833
"901",4,8,32,256,262144,0,"SC",1000,38.5947224355381
"902",4,8,32,256,32768,0,"SC",8000,15.7612660729513
"903",4,8,32,256,32768,0,"SC",2000,15.8620128801403
"904",4,8,32,256,32768,0,"SC",4000,15.8738647822653
"905",4,8,32,256,32768,0,"SC",1000,15.9136127047819
"906",4,8,32,256,32768,0,"SC",500,16.3659908636536
"907",4,8,32,256,32768,0,"SC",250,16.543198507881
"908",4,8,32,256,32768,0,"SC",125,17.702901572991
"909",4,8,32,256,262144,0,"SS",250,35.2604937846493
"910",4,8,32,256,262144,0,"SS",125,35.5779461900936
"911",4,8,32,256,262144,0,"SS",2000,36.0839409724516
"912",4,8,32,256,262144,0,"SS",8000,36.6243704068649
"913",4,8,32,256,262144,0,"SS",500,36.8531909590917
"914",4,8,32,256,262144,0,"SS",1000,38.2287114796266
"915",4,8,32,256,262144,0,"SS",4000,38.2827351967505
"916",4,8,32,256,32768,0,"SS",8000,17.7480744032557
"917",4,8,32,256,32768,0,"SS",4000,18.1215524365878
"918",4,8,32,256,32768,0,"SS",2000,18.3102778504199
"919",4,8,32,256,32768,0,"SS",1000,18.4002641444169
"920",4,8,32,256,32768,0,"SS",500,18.4248299774143
"921",4,8,32,256,32768,0,"SS",125,18.456145252026
"922",4,8,32,256,32768,0,"SS",250,18.7225686486566
"923",4,8,32,512,262144,1,"FP",4000,55.5706225144323
"924",4,8,32,512,262144,1,"FP",8000,55.6003734021171
"925",4,8,32,512,262144,1,"FP",2000,56.5592193391657
"926",4,8,32,512,262144,1,"FP",500,57.0083609943116
"927",4,8,32,512,262144,1,"FP",250,57.0184395350491
"928",4,8,32,512,262144,1,"FP",1000,57.1913357360396
"929",4,8,32,512,262144,1,"FP",125,57.6059874223177
"930",4,8,32,512,32768,1,"FP",4000,48.5847093861009
"931",4,8,32,512,32768,1,"FP",8000,52.848537459304
"932",4,8,32,512,32768,1,"FP",2000,54.7027321851191
"933",4,8,32,512,32768,1,"FP",125,56.1861561481317
"934",4,8,32,512,32768,1,"FP",500,56.2159835656086
"935",4,8,32,512,32768,1,"FP",1000,56.6793249569889
"936",4,8,32,512,32768,1,"FP",250,61.7907396861435
"937",4,8,32,512,262144,0,"FP",8000,18.0957253266817
"938",4,8,32,512,262144,0,"FP",250,18.1670284400927
"939",4,8,32,512,262144,0,"FP",500,18.7003357933832
"940",4,8,32,512,262144,0,"FP",2000,18.7952587858428
"941",4,8,32,512,262144,0,"FP",4000,19.2188404695478
"942",4,8,32,512,262144,0,"FP",1000,19.3598579772919
"943",4,8,32,512,262144,0,"FP",125,19.4429241474377
"944",4,8,32,512,32768,0,"FP",1000,8.89557021886447
"945",4,8,32,512,32768,0,"FP",8000,9.34485622245138
"946",4,8,32,512,32768,0,"FP",2000,9.44305785394522
"947",4,8,32,512,32768,0,"FP",125,9.5193517544565
"948",4,8,32,512,32768,0,"FP",500,9.52221761661404
"949",4,8,32,512,32768,0,"FP",250,9.58404406414009
"950",4,8,32,512,32768,0,"FP",4000,9.60171630678984
"951",4,8,32,512,262144,1,"SC",125,61.3846494615805
"952",4,8,32,512,262144,1,"SC",500,61.4350759786603
"953",4,8,32,512,262144,1,"SC",250,61.7007225733058
"954",4,8,32,512,262144,1,"SC",1000,61.9346441320932
"955",4,8,32,512,262144,1,"SC",4000,62.0466831609452
"956",4,8,32,512,262144,1,"SC",8000,63.1356142512619
"957",4,8,32,512,262144,1,"SC",2000,65.9550413982211
"958",4,8,32,512,32768,1,"SC",8000,31.7246646100368
"959",4,8,32,512,32768,1,"SC",4000,32.2646457151274
"960",4,8,32,512,32768,1,"SC",2000,32.7395558738568
"961",4,8,32,512,32768,1,"SC",1000,34.5965815604275
"962",4,8,32,512,32768,1,"SC",250,34.9053822122309
"963",4,8,32,512,32768,1,"SC",500,34.9068100663877
"964",4,8,32,512,32768,1,"SC",125,36.3582781656823
"965",4,8,32,512,262144,1,"SS",125,60.1674995027661
"966",4,8,32,512,262144,1,"SS",500,60.555248459101
"967",4,8,32,512,262144,1,"SS",4000,60.9247925381408
"968",4,8,32,512,262144,1,"SS",1000,61.1009143656365
"969",4,8,32,512,262144,1,"SS",250,61.2667743222812
"970",4,8,32,512,262144,1,"SS",8000,61.2955814804739
"971",4,8,32,512,262144,1,"SS",2000,62.4626859412445
"972",4,8,32,512,32768,1,"SS",8000,34.8853153773891
"973",4,8,32,512,32768,1,"SS",500,36.1091667562931
"974",4,8,32,512,32768,1,"SS",1000,36.1694631183623
"975",4,8,32,512,32768,1,"SS",125,36.7011935056091
"976",4,8,32,512,32768,1,"SS",2000,36.92788154228
"977",4,8,32,512,32768,1,"SS",250,37.6485467716095
"978",4,8,32,512,32768,1,"SS",4000,38.3020664039634
"979",4,8,32,512,262144,0,"SC",250,36.4985943229359
"980",4,8,32,512,262144,0,"SC",125,36.9172309553145
"981",4,8,32,512,262144,0,"SC",4000,36.9651736803632
"982",4,8,32,512,262144,0,"SC",1000,37.6845702109729
"983",4,8,32,512,262144,0,"SC",8000,38.0875157380665
"984",4,8,32,512,262144,0,"SC",2000,38.2746505195485
"985",4,8,32,512,262144,0,"SC",500,38.5646711457925
"986",4,8,32,512,32768,0,"SC",8000,14.9022729604515
"987",4,8,32,512,32768,0,"SC",4000,15.6954650605383
"988",4,8,32,512,32768,0,"SC",2000,16.3591145149998
"989",4,8,32,512,32768,0,"SC",500,16.5739708539277
"990",4,8,32,512,32768,0,"SC",1000,16.6360224310119
"991",4,8,32,512,32768,0,"SC",250,17.5139585736728
"992",4,8,32,512,32768,0,"SC",125,17.5833837024012
"993",4,8,32,512,262144,0,"SS",125,35.8933330061806
"994",4,8,32,512,262144,0,"SS",250,36.026495658086
"995",4,8,32,512,262144,0,"SS",500,36.2594997499192
"996",4,8,32,512,262144,0,"SS",2000,36.3656380233997
"997",4,8,32,512,262144,0,"SS",1000,36.6087891482111
"998",4,8,32,512,262144,0,"SS",4000,36.8147345222623
"999",4,8,32,512,262144,0,"SS",8000,37.7421078819822
"1000",4,8,32,512,32768,0,"SS",8000,17.3450841761678
"1001",4,8,32,512,32768,0,"SS",4000,17.4863462629552
"1002",4,8,32,512,32768,0,"SS",2000,17.6305580269615
"1003",4,8,32,512,32768,0,"SS",500,17.8340044306355
"1004",4,8,32,512,32768,0,"SS",1000,18.1065403688323
"1005",4,8,32,512,32768,0,"SS",250,18.4597468454834
"1006",4,8,32,512,32768,0,"SS",125,18.6515936047256
