operation;server;compression;repetition;proc2;files1;files2;contig1;contig2;reqsize1;reqsize2;pat_number
read;1;100;2;32;nto1;nto1;contig;contig;4096;4096;3
read;1;100;3;32;nto1;nto1;contig;contig;4096;4096;3
read;1;100;4;32;nto1;nto1;contig;contig;4096;4096;4
read;1;100;5;32;nto1;nto1;contig;contig;4096;4096;4
read;1;100;6;32;nto1;nto1;contig;contig;4096;4096;4
read;1;100;1;64;nto1;nto1;contig;contig;4096;4096;4
read;1;100;2;64;nto1;nto1;contig;contig;4096;4096;4
read;1;100;3;64;nto1;nto1;contig;contig;4096;4096;6
read;1;100;4;64;nto1;nto1;contig;contig;4096;4096;4
read;1;100;5;64;nto1;nto1;contig;contig;4096;4096;5
read;1;100;6;64;nto1;nto1;contig;contig;4096;4096;5
read;1;100;1;32;nton;nton;contig;contig;4096;4096;5
read;1;100;2;32;nton;nton;contig;contig;4096;4096;5
read;1;100;3;32;nton;nton;contig;contig;4096;4096;4
read;1;100;4;32;nton;nton;contig;contig;4096;4096;5
read;1;100;5;32;nton;nton;contig;contig;4096;4096;4
read;1;100;6;32;nton;nton;contig;contig;4096;4096;4
read;1;100;1;64;nton;nton;contig;contig;4096;4096;4
read;1;100;2;64;nton;nton;contig;contig;4096;4096;6
read;1;100;3;64;nton;nton;contig;contig;4096;4096;5
read;1;100;4;64;nton;nton;contig;contig;4096;4096;5
read;1;100;5;64;nton;nton;contig;contig;4096;4096;6
read;1;100;6;64;nton;nton;contig;contig;4096;4096;6
read;1;100;1;32;nto1;nto1;contig;contig;16384;16384;6
read;1;100;2;32;nto1;nto1;contig;contig;16384;16384;4
read;1;100;3;32;nto1;nto1;contig;contig;16384;16384;4
read;1;100;4;32;nto1;nto1;contig;contig;16384;16384;3
read;1;100;5;32;nto1;nto1;contig;contig;16384;16384;5
read;1;100;6;32;nto1;nto1;contig;contig;16384;16384;3
read;1;100;1;64;nto1;nto1;contig;contig;16384;16384;4
read;1;100;2;64;nto1;nto1;contig;contig;16384;16384;5
read;1;100;3;64;nto1;nto1;contig;contig;16384;16384;5
read;1;100;4;64;nto1;nto1;contig;contig;16384;16384;5
read;1;100;5;64;nto1;nto1;contig;contig;16384;16384;4
read;1;100;6;64;nto1;nto1;contig;contig;16384;16384;5
read;1;100;1;32;nton;nton;contig;contig;16384;16384;5
read;1;100;2;32;nton;nton;contig;contig;16384;16384;4
read;1;100;3;32;nton;nton;contig;contig;16384;16384;5
read;1;100;4;32;nton;nton;contig;contig;16384;16384;4
read;1;100;5;32;nton;nton;contig;contig;16384;16384;4
read;1;100;6;32;nton;nton;contig;contig;16384;16384;4
read;1;100;1;64;nton;nton;contig;contig;16384;16384;5
read;1;100;2;64;nton;nton;contig;contig;16384;16384;7
read;1;100;3;64;nton;nton;contig;contig;16384;16384;6
read;1;100;4;64;nton;nton;contig;contig;16384;16384;6
read;1;100;5;64;nton;nton;contig;contig;16384;16384;5
read;1;100;6;64;nton;nton;contig;contig;16384;16384;6
read;1;100;1;32;nto1;nto1;noncontig;noncontig;4096;4096;9
read;1;100;2;32;nto1;nto1;noncontig;noncontig;4096;4096;4
read;1;100;3;32;nto1;nto1;noncontig;noncontig;4096;4096;3
read;1;100;4;32;nto1;nto1;noncontig;noncontig;4096;4096;3
read;1;100;5;32;nto1;nto1;noncontig;noncontig;4096;4096;4
read;1;100;6;32;nto1;nto1;noncontig;noncontig;4096;4096;3
read;1;100;1;64;nto1;nto1;noncontig;noncontig;4096;4096;3
read;1;100;2;64;nto1;nto1;noncontig;noncontig;4096;4096;4
read;1;100;3;64;nto1;nto1;noncontig;noncontig;4096;4096;5
read;1;100;4;64;nto1;nto1;noncontig;noncontig;4096;4096;4
read;1;100;5;64;nto1;nto1;noncontig;noncontig;4096;4096;4
read;1;100;6;64;nto1;nto1;noncontig;noncontig;4096;4096;5
read;1;100;1;32;nto1;nto1;noncontig;noncontig;32;32;5
read;1;100;2;32;nto1;nto1;noncontig;noncontig;32;32;9
read;1;100;3;32;nto1;nto1;noncontig;noncontig;32;32;7
read;1;100;4;32;nto1;nto1;noncontig;noncontig;32;32;10
read;1;100;5;32;nto1;nto1;noncontig;noncontig;32;32;9
read;1;100;6;32;nto1;nto1;noncontig;noncontig;32;32;9
read;1;100;1;64;nto1;nto1;noncontig;noncontig;32;32;8
read;1;100;2;64;nto1;nto1;noncontig;noncontig;32;32;11
read;1;100;3;64;nto1;nto1;noncontig;noncontig;32;32;10
read;1;100;4;64;nto1;nto1;noncontig;noncontig;32;32;11
read;1;100;5;64;nto1;nto1;noncontig;noncontig;32;32;13
read;1;100;6;64;nto1;nto1;noncontig;noncontig;32;32;9
read;1;100;1;32;nto1;nto1;noncontig;noncontig;16384;16384;11
read;1;100;2;32;nto1;nto1;noncontig;noncontig;16384;16384;4
read;1;100;3;32;nto1;nto1;noncontig;noncontig;16384;16384;3
read;1;100;4;32;nto1;nto1;noncontig;noncontig;16384;16384;4
read;1;100;5;32;nto1;nto1;noncontig;noncontig;16384;16384;4
read;1;100;6;32;nto1;nto1;noncontig;noncontig;16384;16384;3
read;1;100;1;64;nto1;nto1;noncontig;noncontig;16384;16384;3
read;1;100;2;64;nto1;nto1;noncontig;noncontig;16384;16384;5
read;1;100;3;64;nto1;nto1;noncontig;noncontig;16384;16384;6
read;1;100;4;64;nto1;nto1;noncontig;noncontig;16384;16384;5
read;1;100;5;64;nto1;nto1;noncontig;noncontig;16384;16384;4
read;1;100;6;64;nto1;nto1;noncontig;noncontig;16384;16384;5
read;1;100;6;64;nto1;nto1;noncontig;noncontig;16384;16384;5
read;2;100;2;32;nto1;nto1;contig;contig;4096;4096;3
read;2;100;3;32;nto1;nto1;contig;contig;4096;4096;3
read;2;100;4;32;nto1;nto1;contig;contig;4096;4096;4
read;2;100;5;32;nto1;nto1;contig;contig;4096;4096;4
read;2;100;6;32;nto1;nto1;contig;contig;4096;4096;4
read;2;100;1;64;nto1;nto1;contig;contig;4096;4096;4
read;2;100;2;64;nto1;nto1;contig;contig;4096;4096;4
read;2;100;3;64;nto1;nto1;contig;contig;4096;4096;6
read;2;100;4;64;nto1;nto1;contig;contig;4096;4096;4
read;2;100;5;64;nto1;nto1;contig;contig;4096;4096;5
read;2;100;6;64;nto1;nto1;contig;contig;4096;4096;5
read;2;100;1;32;nton;nton;contig;contig;4096;4096;5
read;2;100;2;32;nton;nton;contig;contig;4096;4096;5
read;2;100;3;32;nton;nton;contig;contig;4096;4096;4
read;2;100;4;32;nton;nton;contig;contig;4096;4096;5
read;2;100;5;32;nton;nton;contig;contig;4096;4096;4
read;2;100;6;32;nton;nton;contig;contig;4096;4096;5
read;2;100;1;64;nton;nton;contig;contig;4096;4096;4
read;2;100;2;64;nton;nton;contig;contig;4096;4096;6
read;2;100;3;64;nton;nton;contig;contig;4096;4096;5
read;2;100;4;64;nton;nton;contig;contig;4096;4096;5
read;2;100;5;64;nton;nton;contig;contig;4096;4096;6
read;2;100;6;64;nton;nton;contig;contig;4096;4096;6
read;2;100;1;32;nto1;nto1;contig;contig;16384;16384;7
read;2;100;2;32;nto1;nto1;contig;contig;16384;16384;4
read;2;100;3;32;nto1;nto1;contig;contig;16384;16384;4
read;2;100;4;32;nto1;nto1;contig;contig;16384;16384;3
read;2;100;5;32;nto1;nto1;contig;contig;16384;16384;5
read;2;100;6;32;nto1;nto1;contig;contig;16384;16384;3
read;2;100;1;64;nto1;nto1;contig;contig;16384;16384;4
read;2;100;2;64;nto1;nto1;contig;contig;16384;16384;5
read;2;100;3;64;nto1;nto1;contig;contig;16384;16384;5
read;2;100;4;64;nto1;nto1;contig;contig;16384;16384;5
read;2;100;5;64;nto1;nto1;contig;contig;16384;16384;4
read;2;100;6;64;nto1;nto1;contig;contig;16384;16384;5
read;2;100;1;32;nton;nton;contig;contig;16384;16384;5
read;2;100;2;32;nton;nton;contig;contig;16384;16384;4
read;2;100;3;32;nton;nton;contig;contig;16384;16384;5
read;2;100;4;32;nton;nton;contig;contig;16384;16384;4
read;2;100;5;32;nton;nton;contig;contig;16384;16384;4
read;2;100;6;32;nton;nton;contig;contig;16384;16384;4
read;2;100;1;64;nton;nton;contig;contig;16384;16384;5
read;2;100;2;64;nton;nton;contig;contig;16384;16384;7
read;2;100;3;64;nton;nton;contig;contig;16384;16384;6
read;2;100;4;64;nton;nton;contig;contig;16384;16384;6
read;2;100;5;64;nton;nton;contig;contig;16384;16384;5
read;2;100;6;64;nton;nton;contig;contig;16384;16384;6
read;2;100;1;32;nto1;nto1;noncontig;noncontig;4096;4096;9
read;2;100;2;32;nto1;nto1;noncontig;noncontig;4096;4096;4
read;2;100;3;32;nto1;nto1;noncontig;noncontig;4096;4096;3
read;2;100;4;32;nto1;nto1;noncontig;noncontig;4096;4096;3
read;2;100;5;32;nto1;nto1;noncontig;noncontig;4096;4096;4
read;2;100;6;32;nto1;nto1;noncontig;noncontig;4096;4096;3
read;2;100;1;64;nto1;nto1;noncontig;noncontig;4096;4096;3
read;2;100;2;64;nto1;nto1;noncontig;noncontig;4096;4096;4
read;2;100;3;64;nto1;nto1;noncontig;noncontig;4096;4096;5
read;2;100;4;64;nto1;nto1;noncontig;noncontig;4096;4096;4
read;2;100;5;64;nto1;nto1;noncontig;noncontig;4096;4096;4
read;2;100;6;64;nto1;nto1;noncontig;noncontig;4096;4096;5
read;2;100;1;32;nto1;nto1;noncontig;noncontig;32;32;5
read;2;100;2;32;nto1;nto1;noncontig;noncontig;32;32;11
read;2;100;3;32;nto1;nto1;noncontig;noncontig;32;32;9
read;2;100;4;32;nto1;nto1;noncontig;noncontig;32;32;9
read;2;100;5;32;nto1;nto1;noncontig;noncontig;32;32;10
read;2;100;6;32;nto1;nto1;noncontig;noncontig;32;32;8
read;2;100;1;64;nto1;nto1;noncontig;noncontig;32;32;8
read;2;100;2;64;nto1;nto1;noncontig;noncontig;32;32;12
read;2;100;3;64;nto1;nto1;noncontig;noncontig;32;32;10
read;2;100;4;64;nto1;nto1;noncontig;noncontig;32;32;12
read;2;100;5;64;nto1;nto1;noncontig;noncontig;32;32;11
read;2;100;6;64;nto1;nto1;noncontig;noncontig;32;32;9
read;2;100;1;32;nto1;nto1;noncontig;noncontig;16384;16384;10
read;2;100;2;32;nto1;nto1;noncontig;noncontig;16384;16384;4
read;2;100;3;32;nto1;nto1;noncontig;noncontig;16384;16384;3
read;2;100;4;32;nto1;nto1;noncontig;noncontig;16384;16384;4
read;2;100;5;32;nto1;nto1;noncontig;noncontig;16384;16384;4
read;2;100;6;32;nto1;nto1;noncontig;noncontig;16384;16384;3
read;2;100;1;64;nto1;nto1;noncontig;noncontig;16384;16384;3
read;2;100;2;64;nto1;nto1;noncontig;noncontig;16384;16384;5
read;2;100;3;64;nto1;nto1;noncontig;noncontig;16384;16384;6
read;2;100;4;64;nto1;nto1;noncontig;noncontig;16384;16384;5
read;2;100;5;64;nto1;nto1;noncontig;noncontig;16384;16384;4
read;2;100;6;64;nto1;nto1;noncontig;noncontig;16384;16384;5
read;2;100;6;64;nto1;nto1;noncontig;noncontig;16384;16384;5
read;3;100;2;32;nto1;nto1;contig;contig;4096;4096;3
read;3;100;3;32;nto1;nto1;contig;contig;4096;4096;3
read;3;100;4;32;nto1;nto1;contig;contig;4096;4096;4
read;3;100;5;32;nto1;nto1;contig;contig;4096;4096;4
read;3;100;6;32;nto1;nto1;contig;contig;4096;4096;4
read;3;100;1;64;nto1;nto1;contig;contig;4096;4096;4
read;3;100;2;64;nto1;nto1;contig;contig;4096;4096;4
read;3;100;3;64;nto1;nto1;contig;contig;4096;4096;6
read;3;100;4;64;nto1;nto1;contig;contig;4096;4096;4
read;3;100;5;64;nto1;nto1;contig;contig;4096;4096;5
read;3;100;6;64;nto1;nto1;contig;contig;4096;4096;5
read;3;100;1;32;nton;nton;contig;contig;4096;4096;5
read;3;100;2;32;nton;nton;contig;contig;4096;4096;5
read;3;100;3;32;nton;nton;contig;contig;4096;4096;4
read;3;100;4;32;nton;nton;contig;contig;4096;4096;5
read;3;100;5;32;nton;nton;contig;contig;4096;4096;4
read;3;100;6;32;nton;nton;contig;contig;4096;4096;4
read;3;100;1;64;nton;nton;contig;contig;4096;4096;4
read;3;100;2;64;nton;nton;contig;contig;4096;4096;6
read;3;100;3;64;nton;nton;contig;contig;4096;4096;5
read;3;100;4;64;nton;nton;contig;contig;4096;4096;5
read;3;100;5;64;nton;nton;contig;contig;4096;4096;6
read;3;100;6;64;nton;nton;contig;contig;4096;4096;6
read;3;100;1;32;nto1;nto1;contig;contig;16384;16384;7
read;3;100;2;32;nto1;nto1;contig;contig;16384;16384;4
read;3;100;3;32;nto1;nto1;contig;contig;16384;16384;4
read;3;100;4;32;nto1;nto1;contig;contig;16384;16384;3
read;3;100;5;32;nto1;nto1;contig;contig;16384;16384;5
read;3;100;6;32;nto1;nto1;contig;contig;16384;16384;3
read;3;100;1;64;nto1;nto1;contig;contig;16384;16384;4
read;3;100;2;64;nto1;nto1;contig;contig;16384;16384;5
read;3;100;3;64;nto1;nto1;contig;contig;16384;16384;5
read;3;100;4;64;nto1;nto1;contig;contig;16384;16384;5
read;3;100;5;64;nto1;nto1;contig;contig;16384;16384;4
read;3;100;6;64;nto1;nto1;contig;contig;16384;16384;5
read;3;100;1;32;nton;nton;contig;contig;16384;16384;5
read;3;100;2;32;nton;nton;contig;contig;16384;16384;4
read;3;100;3;32;nton;nton;contig;contig;16384;16384;5
read;3;100;4;32;nton;nton;contig;contig;16384;16384;4
read;3;100;5;32;nton;nton;contig;contig;16384;16384;4
read;3;100;6;32;nton;nton;contig;contig;16384;16384;4
read;3;100;1;64;nton;nton;contig;contig;16384;16384;5
read;3;100;2;64;nton;nton;contig;contig;16384;16384;7
read;3;100;3;64;nton;nton;contig;contig;16384;16384;6
read;3;100;4;64;nton;nton;contig;contig;16384;16384;6
read;3;100;5;64;nton;nton;contig;contig;16384;16384;5
read;3;100;6;64;nton;nton;contig;contig;16384;16384;6
read;3;100;1;32;nto1;nto1;noncontig;noncontig;4096;4096;9
read;3;100;2;32;nto1;nto1;noncontig;noncontig;4096;4096;4
read;3;100;3;32;nto1;nto1;noncontig;noncontig;4096;4096;3
read;3;100;4;32;nto1;nto1;noncontig;noncontig;4096;4096;3
read;3;100;5;32;nto1;nto1;noncontig;noncontig;4096;4096;4
read;3;100;6;32;nto1;nto1;noncontig;noncontig;4096;4096;3
read;3;100;1;64;nto1;nto1;noncontig;noncontig;4096;4096;3
read;3;100;2;64;nto1;nto1;noncontig;noncontig;4096;4096;4
read;3;100;3;64;nto1;nto1;noncontig;noncontig;4096;4096;5
read;3;100;4;64;nto1;nto1;noncontig;noncontig;4096;4096;4
read;3;100;5;64;nto1;nto1;noncontig;noncontig;4096;4096;4
read;3;100;6;64;nto1;nto1;noncontig;noncontig;4096;4096;5
read;3;100;1;32;nto1;nto1;noncontig;noncontig;32;32;5
read;3;100;2;32;nto1;nto1;noncontig;noncontig;32;32;10
read;3;100;3;32;nto1;nto1;noncontig;noncontig;32;32;7
read;3;100;4;32;nto1;nto1;noncontig;noncontig;32;32;9
read;3;100;5;32;nto1;nto1;noncontig;noncontig;32;32;8
read;3;100;6;32;nto1;nto1;noncontig;noncontig;32;32;8
read;3;100;1;64;nto1;nto1;noncontig;noncontig;32;32;10
read;3;100;2;64;nto1;nto1;noncontig;noncontig;32;32;11
read;3;100;3;64;nto1;nto1;noncontig;noncontig;32;32;10
read;3;100;4;64;nto1;nto1;noncontig;noncontig;32;32;12
read;3;100;5;64;nto1;nto1;noncontig;noncontig;32;32;11
read;3;100;6;64;nto1;nto1;noncontig;noncontig;32;32;12
read;3;100;1;32;nto1;nto1;noncontig;noncontig;16384;16384;12
read;3;100;2;32;nto1;nto1;noncontig;noncontig;16384;16384;4
read;3;100;3;32;nto1;nto1;noncontig;noncontig;16384;16384;3
read;3;100;4;32;nto1;nto1;noncontig;noncontig;16384;16384;4
read;3;100;5;32;nto1;nto1;noncontig;noncontig;16384;16384;4
read;3;100;6;32;nto1;nto1;noncontig;noncontig;16384;16384;3
read;3;100;1;64;nto1;nto1;noncontig;noncontig;16384;16384;3
read;3;100;2;64;nto1;nto1;noncontig;noncontig;16384;16384;5
read;3;100;3;64;nto1;nto1;noncontig;noncontig;16384;16384;6
read;3;100;4;64;nto1;nto1;noncontig;noncontig;16384;16384;5
read;3;100;5;64;nto1;nto1;noncontig;noncontig;16384;16384;4
read;3;100;6;64;nto1;nto1;noncontig;noncontig;16384;16384;5
read;3;100;6;64;nto1;nto1;noncontig;noncontig;16384;16384;5
read;4;100;2;32;nto1;nto1;contig;contig;4096;4096;3
read;4;100;3;32;nto1;nto1;contig;contig;4096;4096;3
read;4;100;4;32;nto1;nto1;contig;contig;4096;4096;4
read;4;100;5;32;nto1;nto1;contig;contig;4096;4096;4
read;4;100;6;32;nto1;nto1;contig;contig;4096;4096;4
read;4;100;1;64;nto1;nto1;contig;contig;4096;4096;4
read;4;100;2;64;nto1;nto1;contig;contig;4096;4096;4
read;4;100;3;64;nto1;nto1;contig;contig;4096;4096;6
read;4;100;4;64;nto1;nto1;contig;contig;4096;4096;4
read;4;100;5;64;nto1;nto1;contig;contig;4096;4096;5
read;4;100;6;64;nto1;nto1;contig;contig;4096;4096;5
read;4;100;1;32;nton;nton;contig;contig;4096;4096;5
read;4;100;2;32;nton;nton;contig;contig;4096;4096;5
read;4;100;3;32;nton;nton;contig;contig;4096;4096;4
read;4;100;4;32;nton;nton;contig;contig;4096;4096;5
read;4;100;5;32;nton;nton;contig;contig;4096;4096;4
read;4;100;6;32;nton;nton;contig;contig;4096;4096;4
read;4;100;1;64;nton;nton;contig;contig;4096;4096;4
read;4;100;2;64;nton;nton;contig;contig;4096;4096;6
read;4;100;3;64;nton;nton;contig;contig;4096;4096;5
read;4;100;4;64;nton;nton;contig;contig;4096;4096;5
read;4;100;5;64;nton;nton;contig;contig;4096;4096;6
read;4;100;6;64;nton;nton;contig;contig;4096;4096;6
read;4;100;1;32;nto1;nto1;contig;contig;16384;16384;7
read;4;100;2;32;nto1;nto1;contig;contig;16384;16384;4
read;4;100;3;32;nto1;nto1;contig;contig;16384;16384;4
read;4;100;4;32;nto1;nto1;contig;contig;16384;16384;3
read;4;100;5;32;nto1;nto1;contig;contig;16384;16384;5
read;4;100;6;32;nto1;nto1;contig;contig;16384;16384;3
read;4;100;1;64;nto1;nto1;contig;contig;16384;16384;4
read;4;100;2;64;nto1;nto1;contig;contig;16384;16384;5
read;4;100;3;64;nto1;nto1;contig;contig;16384;16384;5
read;4;100;4;64;nto1;nto1;contig;contig;16384;16384;5
read;4;100;5;64;nto1;nto1;contig;contig;16384;16384;4
read;4;100;6;64;nto1;nto1;contig;contig;16384;16384;5
read;4;100;1;32;nton;nton;contig;contig;16384;16384;5
read;4;100;2;32;nton;nton;contig;contig;16384;16384;4
read;4;100;3;32;nton;nton;contig;contig;16384;16384;5
read;4;100;4;32;nton;nton;contig;contig;16384;16384;4
read;4;100;5;32;nton;nton;contig;contig;16384;16384;4
read;4;100;6;32;nton;nton;contig;contig;16384;16384;4
read;4;100;1;64;nton;nton;contig;contig;16384;16384;5
read;4;100;2;64;nton;nton;contig;contig;16384;16384;7
read;4;100;3;64;nton;nton;contig;contig;16384;16384;7
read;4;100;4;64;nton;nton;contig;contig;16384;16384;6
read;4;100;5;64;nton;nton;contig;contig;16384;16384;5
read;4;100;6;64;nton;nton;contig;contig;16384;16384;5
read;4;100;1;32;nto1;nto1;noncontig;noncontig;4096;4096;9
read;4;100;2;32;nto1;nto1;noncontig;noncontig;4096;4096;4
read;4;100;3;32;nto1;nto1;noncontig;noncontig;4096;4096;3
read;4;100;4;32;nto1;nto1;noncontig;noncontig;4096;4096;3
read;4;100;5;32;nto1;nto1;noncontig;noncontig;4096;4096;4
read;4;100;6;32;nto1;nto1;noncontig;noncontig;4096;4096;3
read;4;100;1;64;nto1;nto1;noncontig;noncontig;4096;4096;3
read;4;100;2;64;nto1;nto1;noncontig;noncontig;4096;4096;4
read;4;100;3;64;nto1;nto1;noncontig;noncontig;4096;4096;5
read;4;100;4;64;nto1;nto1;noncontig;noncontig;4096;4096;4
read;4;100;5;64;nto1;nto1;noncontig;noncontig;4096;4096;4
read;4;100;6;64;nto1;nto1;noncontig;noncontig;4096;4096;5
read;4;100;1;32;nto1;nto1;noncontig;noncontig;32;32;5
read;4;100;2;32;nto1;nto1;noncontig;noncontig;32;32;9
read;4;100;3;32;nto1;nto1;noncontig;noncontig;32;32;7
read;4;100;4;32;nto1;nto1;noncontig;noncontig;32;32;10
read;4;100;5;32;nto1;nto1;noncontig;noncontig;32;32;10
read;4;100;6;32;nto1;nto1;noncontig;noncontig;32;32;8
read;4;100;1;64;nto1;nto1;noncontig;noncontig;32;32;8
read;4;100;2;64;nto1;nto1;noncontig;noncontig;32;32;11
read;4;100;3;64;nto1;nto1;noncontig;noncontig;32;32;11
read;4;100;4;64;nto1;nto1;noncontig;noncontig;32;32;10
read;4;100;5;64;nto1;nto1;noncontig;noncontig;32;32;11
read;4;100;6;64;nto1;nto1;noncontig;noncontig;32;32;10
read;4;100;1;32;nto1;nto1;noncontig;noncontig;16384;16384;10
read;4;100;2;32;nto1;nto1;noncontig;noncontig;16384;16384;4
read;4;100;3;32;nto1;nto1;noncontig;noncontig;16384;16384;3
read;4;100;4;32;nto1;nto1;noncontig;noncontig;16384;16384;4
read;4;100;5;32;nto1;nto1;noncontig;noncontig;16384;16384;4
read;4;100;6;32;nto1;nto1;noncontig;noncontig;16384;16384;3
read;4;100;1;64;nto1;nto1;noncontig;noncontig;16384;16384;3
read;4;100;2;64;nto1;nto1;noncontig;noncontig;16384;16384;5
read;4;100;3;64;nto1;nto1;noncontig;noncontig;16384;16384;6
read;4;100;4;64;nto1;nto1;noncontig;noncontig;16384;16384;5
read;4;100;5;64;nto1;nto1;noncontig;noncontig;16384;16384;4
read;4;100;6;64;nto1;nto1;noncontig;noncontig;16384;16384;5
read;4;100;6;64;nto1;nto1;noncontig;noncontig;16384;16384;5
read;1;1000;2;32;nto1;nto1;contig;contig;4096;4096;3
read;1;1000;3;32;nto1;nto1;contig;contig;4096;4096;3
read;1;1000;4;32;nto1;nto1;contig;contig;4096;4096;4
read;1;1000;5;32;nto1;nto1;contig;contig;4096;4096;4
read;1;1000;6;32;nto1;nto1;contig;contig;4096;4096;4
read;1;1000;1;64;nto1;nto1;contig;contig;4096;4096;4
read;1;1000;2;64;nto1;nto1;contig;contig;4096;4096;4
read;1;1000;3;64;nto1;nto1;contig;contig;4096;4096;6
read;1;1000;4;64;nto1;nto1;contig;contig;4096;4096;4
read;1;1000;5;64;nto1;nto1;contig;contig;4096;4096;5
read;1;1000;6;64;nto1;nto1;contig;contig;4096;4096;5
read;1;1000;1;32;nton;nton;contig;contig;4096;4096;5
read;1;1000;2;32;nton;nton;contig;contig;4096;4096;5
read;1;1000;3;32;nton;nton;contig;contig;4096;4096;4
read;1;1000;4;32;nton;nton;contig;contig;4096;4096;5
read;1;1000;5;32;nton;nton;contig;contig;4096;4096;4
read;1;1000;6;32;nton;nton;contig;contig;4096;4096;4
read;1;1000;1;64;nton;nton;contig;contig;4096;4096;4
read;1;1000;2;64;nton;nton;contig;contig;4096;4096;6
read;1;1000;3;64;nton;nton;contig;contig;4096;4096;5
read;1;1000;4;64;nton;nton;contig;contig;4096;4096;5
read;1;1000;5;64;nton;nton;contig;contig;4096;4096;6
read;1;1000;6;64;nton;nton;contig;contig;4096;4096;6
read;1;1000;1;32;nto1;nto1;contig;contig;16384;16384;6
read;1;1000;2;32;nto1;nto1;contig;contig;16384;16384;4
read;1;1000;3;32;nto1;nto1;contig;contig;16384;16384;4
read;1;1000;4;32;nto1;nto1;contig;contig;16384;16384;3
read;1;1000;5;32;nto1;nto1;contig;contig;16384;16384;5
read;1;1000;6;32;nto1;nto1;contig;contig;16384;16384;3
read;1;1000;1;64;nto1;nto1;contig;contig;16384;16384;4
read;1;1000;2;64;nto1;nto1;contig;contig;16384;16384;5
read;1;1000;3;64;nto1;nto1;contig;contig;16384;16384;5
read;1;1000;4;64;nto1;nto1;contig;contig;16384;16384;5
read;1;1000;5;64;nto1;nto1;contig;contig;16384;16384;4
read;1;1000;6;64;nto1;nto1;contig;contig;16384;16384;5
read;1;1000;1;32;nton;nton;contig;contig;16384;16384;5
read;1;1000;2;32;nton;nton;contig;contig;16384;16384;4
read;1;1000;3;32;nton;nton;contig;contig;16384;16384;5
read;1;1000;4;32;nton;nton;contig;contig;16384;16384;4
read;1;1000;5;32;nton;nton;contig;contig;16384;16384;4
read;1;1000;6;32;nton;nton;contig;contig;16384;16384;4
read;1;1000;1;64;nton;nton;contig;contig;16384;16384;5
read;1;1000;2;64;nton;nton;contig;contig;16384;16384;7
read;1;1000;3;64;nton;nton;contig;contig;16384;16384;6
read;1;1000;4;64;nton;nton;contig;contig;16384;16384;6
read;1;1000;5;64;nton;nton;contig;contig;16384;16384;5
read;1;1000;6;64;nton;nton;contig;contig;16384;16384;6
read;1;1000;1;32;nto1;nto1;noncontig;noncontig;4096;4096;9
read;1;1000;2;32;nto1;nto1;noncontig;noncontig;4096;4096;4
read;1;1000;3;32;nto1;nto1;noncontig;noncontig;4096;4096;3
read;1;1000;4;32;nto1;nto1;noncontig;noncontig;4096;4096;3
read;1;1000;5;32;nto1;nto1;noncontig;noncontig;4096;4096;4
read;1;1000;6;32;nto1;nto1;noncontig;noncontig;4096;4096;3
read;1;1000;1;64;nto1;nto1;noncontig;noncontig;4096;4096;3
read;1;1000;2;64;nto1;nto1;noncontig;noncontig;4096;4096;4
read;1;1000;3;64;nto1;nto1;noncontig;noncontig;4096;4096;5
read;1;1000;4;64;nto1;nto1;noncontig;noncontig;4096;4096;4
read;1;1000;5;64;nto1;nto1;noncontig;noncontig;4096;4096;4
read;1;1000;6;64;nto1;nto1;noncontig;noncontig;4096;4096;5
read;1;1000;1;32;nto1;nto1;noncontig;noncontig;32;32;5
read;1;1000;2;32;nto1;nto1;noncontig;noncontig;32;32;9
read;1;1000;3;32;nto1;nto1;noncontig;noncontig;32;32;7
read;1;1000;4;32;nto1;nto1;noncontig;noncontig;32;32;10
read;1;1000;5;32;nto1;nto1;noncontig;noncontig;32;32;9
read;1;1000;6;32;nto1;nto1;noncontig;noncontig;32;32;9
read;1;1000;1;64;nto1;nto1;noncontig;noncontig;32;32;8
read;1;1000;2;64;nto1;nto1;noncontig;noncontig;32;32;11
read;1;1000;3;64;nto1;nto1;noncontig;noncontig;32;32;10
read;1;1000;4;64;nto1;nto1;noncontig;noncontig;32;32;11
read;1;1000;5;64;nto1;nto1;noncontig;noncontig;32;32;13
read;1;1000;6;64;nto1;nto1;noncontig;noncontig;32;32;9
read;1;1000;1;32;nto1;nto1;noncontig;noncontig;16384;16384;11
read;1;1000;2;32;nto1;nto1;noncontig;noncontig;16384;16384;4
read;1;1000;3;32;nto1;nto1;noncontig;noncontig;16384;16384;3
read;1;1000;4;32;nto1;nto1;noncontig;noncontig;16384;16384;4
read;1;1000;5;32;nto1;nto1;noncontig;noncontig;16384;16384;4
read;1;1000;6;32;nto1;nto1;noncontig;noncontig;16384;16384;3
read;1;1000;1;64;nto1;nto1;noncontig;noncontig;16384;16384;3
read;1;1000;2;64;nto1;nto1;noncontig;noncontig;16384;16384;5
read;1;1000;3;64;nto1;nto1;noncontig;noncontig;16384;16384;6
read;1;1000;4;64;nto1;nto1;noncontig;noncontig;16384;16384;5
read;1;1000;5;64;nto1;nto1;noncontig;noncontig;16384;16384;4
read;1;1000;6;64;nto1;nto1;noncontig;noncontig;16384;16384;5
read;1;1000;6;64;nto1;nto1;noncontig;noncontig;16384;16384;5
read;2;1000;2;32;nto1;nto1;contig;contig;4096;4096;3
read;2;1000;3;32;nto1;nto1;contig;contig;4096;4096;3
read;2;1000;4;32;nto1;nto1;contig;contig;4096;4096;4
read;2;1000;5;32;nto1;nto1;contig;contig;4096;4096;4
read;2;1000;6;32;nto1;nto1;contig;contig;4096;4096;4
read;2;1000;1;64;nto1;nto1;contig;contig;4096;4096;4
read;2;1000;2;64;nto1;nto1;contig;contig;4096;4096;4
read;2;1000;3;64;nto1;nto1;contig;contig;4096;4096;6
read;2;1000;4;64;nto1;nto1;contig;contig;4096;4096;4
read;2;1000;5;64;nto1;nto1;contig;contig;4096;4096;5
read;2;1000;6;64;nto1;nto1;contig;contig;4096;4096;5
read;2;1000;1;32;nton;nton;contig;contig;4096;4096;5
read;2;1000;2;32;nton;nton;contig;contig;4096;4096;5
read;2;1000;3;32;nton;nton;contig;contig;4096;4096;4
read;2;1000;4;32;nton;nton;contig;contig;4096;4096;5
read;2;1000;5;32;nton;nton;contig;contig;4096;4096;4
read;2;1000;6;32;nton;nton;contig;contig;4096;4096;5
read;2;1000;1;64;nton;nton;contig;contig;4096;4096;4
read;2;1000;2;64;nton;nton;contig;contig;4096;4096;6
read;2;1000;3;64;nton;nton;contig;contig;4096;4096;5
read;2;1000;4;64;nton;nton;contig;contig;4096;4096;5
read;2;1000;5;64;nton;nton;contig;contig;4096;4096;6
read;2;1000;6;64;nton;nton;contig;contig;4096;4096;6
read;2;1000;1;32;nto1;nto1;contig;contig;16384;16384;7
read;2;1000;2;32;nto1;nto1;contig;contig;16384;16384;4
read;2;1000;3;32;nto1;nto1;contig;contig;16384;16384;4
read;2;1000;4;32;nto1;nto1;contig;contig;16384;16384;3
read;2;1000;5;32;nto1;nto1;contig;contig;16384;16384;5
read;2;1000;6;32;nto1;nto1;contig;contig;16384;16384;3
read;2;1000;1;64;nto1;nto1;contig;contig;16384;16384;4
read;2;1000;2;64;nto1;nto1;contig;contig;16384;16384;5
read;2;1000;3;64;nto1;nto1;contig;contig;16384;16384;5
read;2;1000;4;64;nto1;nto1;contig;contig;16384;16384;5
read;2;1000;5;64;nto1;nto1;contig;contig;16384;16384;4
read;2;1000;6;64;nto1;nto1;contig;contig;16384;16384;5
read;2;1000;1;32;nton;nton;contig;contig;16384;16384;5
read;2;1000;2;32;nton;nton;contig;contig;16384;16384;4
read;2;1000;3;32;nton;nton;contig;contig;16384;16384;5
read;2;1000;4;32;nton;nton;contig;contig;16384;16384;4
read;2;1000;5;32;nton;nton;contig;contig;16384;16384;4
read;2;1000;6;32;nton;nton;contig;contig;16384;16384;4
read;2;1000;1;64;nton;nton;contig;contig;16384;16384;5
read;2;1000;2;64;nton;nton;contig;contig;16384;16384;7
read;2;1000;3;64;nton;nton;contig;contig;16384;16384;6
read;2;1000;4;64;nton;nton;contig;contig;16384;16384;6
read;2;1000;5;64;nton;nton;contig;contig;16384;16384;5
read;2;1000;6;64;nton;nton;contig;contig;16384;16384;6
read;2;1000;1;32;nto1;nto1;noncontig;noncontig;4096;4096;9
read;2;1000;2;32;nto1;nto1;noncontig;noncontig;4096;4096;4
read;2;1000;3;32;nto1;nto1;noncontig;noncontig;4096;4096;3
read;2;1000;4;32;nto1;nto1;noncontig;noncontig;4096;4096;3
read;2;1000;5;32;nto1;nto1;noncontig;noncontig;4096;4096;4
read;2;1000;6;32;nto1;nto1;noncontig;noncontig;4096;4096;3
read;2;1000;1;64;nto1;nto1;noncontig;noncontig;4096;4096;3
read;2;1000;2;64;nto1;nto1;noncontig;noncontig;4096;4096;4
read;2;1000;3;64;nto1;nto1;noncontig;noncontig;4096;4096;5
read;2;1000;4;64;nto1;nto1;noncontig;noncontig;4096;4096;4
read;2;1000;5;64;nto1;nto1;noncontig;noncontig;4096;4096;4
read;2;1000;6;64;nto1;nto1;noncontig;noncontig;4096;4096;5
read;2;1000;1;32;nto1;nto1;noncontig;noncontig;32;32;5
read;2;1000;2;32;nto1;nto1;noncontig;noncontig;32;32;11
read;2;1000;3;32;nto1;nto1;noncontig;noncontig;32;32;9
read;2;1000;4;32;nto1;nto1;noncontig;noncontig;32;32;9
read;2;1000;5;32;nto1;nto1;noncontig;noncontig;32;32;10
read;2;1000;6;32;nto1;nto1;noncontig;noncontig;32;32;8
read;2;1000;1;64;nto1;nto1;noncontig;noncontig;32;32;8
read;2;1000;2;64;nto1;nto1;noncontig;noncontig;32;32;12
read;2;1000;3;64;nto1;nto1;noncontig;noncontig;32;32;10
read;2;1000;4;64;nto1;nto1;noncontig;noncontig;32;32;12
read;2;1000;5;64;nto1;nto1;noncontig;noncontig;32;32;11
read;2;1000;6;64;nto1;nto1;noncontig;noncontig;32;32;9
read;2;1000;1;32;nto1;nto1;noncontig;noncontig;16384;16384;10
read;2;1000;2;32;nto1;nto1;noncontig;noncontig;16384;16384;4
read;2;1000;3;32;nto1;nto1;noncontig;noncontig;16384;16384;3
read;2;1000;4;32;nto1;nto1;noncontig;noncontig;16384;16384;4
read;2;1000;5;32;nto1;nto1;noncontig;noncontig;16384;16384;4
read;2;1000;6;32;nto1;nto1;noncontig;noncontig;16384;16384;3
read;2;1000;1;64;nto1;nto1;noncontig;noncontig;16384;16384;3
read;2;1000;2;64;nto1;nto1;noncontig;noncontig;16384;16384;5
read;2;1000;3;64;nto1;nto1;noncontig;noncontig;16384;16384;6
read;2;1000;4;64;nto1;nto1;noncontig;noncontig;16384;16384;5
read;2;1000;5;64;nto1;nto1;noncontig;noncontig;16384;16384;4
read;2;1000;6;64;nto1;nto1;noncontig;noncontig;16384;16384;5
read;2;1000;6;64;nto1;nto1;noncontig;noncontig;16384;16384;5
read;3;1000;2;32;nto1;nto1;contig;contig;4096;4096;3
read;3;1000;3;32;nto1;nto1;contig;contig;4096;4096;3
read;3;1000;4;32;nto1;nto1;contig;contig;4096;4096;4
read;3;1000;5;32;nto1;nto1;contig;contig;4096;4096;4
read;3;1000;6;32;nto1;nto1;contig;contig;4096;4096;4
read;3;1000;1;64;nto1;nto1;contig;contig;4096;4096;4
read;3;1000;2;64;nto1;nto1;contig;contig;4096;4096;4
read;3;1000;3;64;nto1;nto1;contig;contig;4096;4096;6
read;3;1000;4;64;nto1;nto1;contig;contig;4096;4096;4
read;3;1000;5;64;nto1;nto1;contig;contig;4096;4096;5
read;3;1000;6;64;nto1;nto1;contig;contig;4096;4096;5
read;3;1000;1;32;nton;nton;contig;contig;4096;4096;5
read;3;1000;2;32;nton;nton;contig;contig;4096;4096;5
read;3;1000;3;32;nton;nton;contig;contig;4096;4096;4
read;3;1000;4;32;nton;nton;contig;contig;4096;4096;5
read;3;1000;5;32;nton;nton;contig;contig;4096;4096;4
read;3;1000;6;32;nton;nton;contig;contig;4096;4096;4
read;3;1000;1;64;nton;nton;contig;contig;4096;4096;4
read;3;1000;2;64;nton;nton;contig;contig;4096;4096;6
read;3;1000;3;64;nton;nton;contig;contig;4096;4096;5
read;3;1000;4;64;nton;nton;contig;contig;4096;4096;5
read;3;1000;5;64;nton;nton;contig;contig;4096;4096;6
read;3;1000;6;64;nton;nton;contig;contig;4096;4096;6
read;3;1000;1;32;nto1;nto1;contig;contig;16384;16384;7
read;3;1000;2;32;nto1;nto1;contig;contig;16384;16384;4
read;3;1000;3;32;nto1;nto1;contig;contig;16384;16384;4
read;3;1000;4;32;nto1;nto1;contig;contig;16384;16384;3
read;3;1000;5;32;nto1;nto1;contig;contig;16384;16384;5
read;3;1000;6;32;nto1;nto1;contig;contig;16384;16384;3
read;3;1000;1;64;nto1;nto1;contig;contig;16384;16384;4
read;3;1000;2;64;nto1;nto1;contig;contig;16384;16384;5
read;3;1000;3;64;nto1;nto1;contig;contig;16384;16384;5
read;3;1000;4;64;nto1;nto1;contig;contig;16384;16384;5
read;3;1000;5;64;nto1;nto1;contig;contig;16384;16384;4
read;3;1000;6;64;nto1;nto1;contig;contig;16384;16384;5
read;3;1000;1;32;nton;nton;contig;contig;16384;16384;5
read;3;1000;2;32;nton;nton;contig;contig;16384;16384;4
read;3;1000;3;32;nton;nton;contig;contig;16384;16384;5
read;3;1000;4;32;nton;nton;contig;contig;16384;16384;4
read;3;1000;5;32;nton;nton;contig;contig;16384;16384;4
read;3;1000;6;32;nton;nton;contig;contig;16384;16384;4
read;3;1000;1;64;nton;nton;contig;contig;16384;16384;5
read;3;1000;2;64;nton;nton;contig;contig;16384;16384;7
read;3;1000;3;64;nton;nton;contig;contig;16384;16384;6
read;3;1000;4;64;nton;nton;contig;contig;16384;16384;6
read;3;1000;5;64;nton;nton;contig;contig;16384;16384;5
read;3;1000;6;64;nton;nton;contig;contig;16384;16384;6
read;3;1000;1;32;nto1;nto1;noncontig;noncontig;4096;4096;9
read;3;1000;2;32;nto1;nto1;noncontig;noncontig;4096;4096;4
read;3;1000;3;32;nto1;nto1;noncontig;noncontig;4096;4096;3
read;3;1000;4;32;nto1;nto1;noncontig;noncontig;4096;4096;3
read;3;1000;5;32;nto1;nto1;noncontig;noncontig;4096;4096;4
read;3;1000;6;32;nto1;nto1;noncontig;noncontig;4096;4096;3
read;3;1000;1;64;nto1;nto1;noncontig;noncontig;4096;4096;3
read;3;1000;2;64;nto1;nto1;noncontig;noncontig;4096;4096;4
read;3;1000;3;64;nto1;nto1;noncontig;noncontig;4096;4096;5
read;3;1000;4;64;nto1;nto1;noncontig;noncontig;4096;4096;4
read;3;1000;5;64;nto1;nto1;noncontig;noncontig;4096;4096;4
read;3;1000;6;64;nto1;nto1;noncontig;noncontig;4096;4096;5
read;3;1000;1;32;nto1;nto1;noncontig;noncontig;32;32;5
read;3;1000;2;32;nto1;nto1;noncontig;noncontig;32;32;10
read;3;1000;3;32;nto1;nto1;noncontig;noncontig;32;32;7
read;3;1000;4;32;nto1;nto1;noncontig;noncontig;32;32;9
read;3;1000;5;32;nto1;nto1;noncontig;noncontig;32;32;8
read;3;1000;6;32;nto1;nto1;noncontig;noncontig;32;32;8
read;3;1000;1;64;nto1;nto1;noncontig;noncontig;32;32;10
read;3;1000;2;64;nto1;nto1;noncontig;noncontig;32;32;11
read;3;1000;3;64;nto1;nto1;noncontig;noncontig;32;32;10
read;3;1000;4;64;nto1;nto1;noncontig;noncontig;32;32;12
read;3;1000;5;64;nto1;nto1;noncontig;noncontig;32;32;11
read;3;1000;6;64;nto1;nto1;noncontig;noncontig;32;32;12
read;3;1000;1;32;nto1;nto1;noncontig;noncontig;16384;16384;12
read;3;1000;2;32;nto1;nto1;noncontig;noncontig;16384;16384;4
read;3;1000;3;32;nto1;nto1;noncontig;noncontig;16384;16384;3
read;3;1000;4;32;nto1;nto1;noncontig;noncontig;16384;16384;4
read;3;1000;5;32;nto1;nto1;noncontig;noncontig;16384;16384;4
read;3;1000;6;32;nto1;nto1;noncontig;noncontig;16384;16384;3
read;3;1000;1;64;nto1;nto1;noncontig;noncontig;16384;16384;3
read;3;1000;2;64;nto1;nto1;noncontig;noncontig;16384;16384;5
read;3;1000;3;64;nto1;nto1;noncontig;noncontig;16384;16384;6
read;3;1000;4;64;nto1;nto1;noncontig;noncontig;16384;16384;5
read;3;1000;5;64;nto1;nto1;noncontig;noncontig;16384;16384;4
read;3;1000;6;64;nto1;nto1;noncontig;noncontig;16384;16384;5
read;3;1000;6;64;nto1;nto1;noncontig;noncontig;16384;16384;5
read;4;1000;2;32;nto1;nto1;contig;contig;4096;4096;3
read;4;1000;3;32;nto1;nto1;contig;contig;4096;4096;3
read;4;1000;4;32;nto1;nto1;contig;contig;4096;4096;4
read;4;1000;5;32;nto1;nto1;contig;contig;4096;4096;4
read;4;1000;6;32;nto1;nto1;contig;contig;4096;4096;4
read;4;1000;1;64;nto1;nto1;contig;contig;4096;4096;4
read;4;1000;2;64;nto1;nto1;contig;contig;4096;4096;4
read;4;1000;3;64;nto1;nto1;contig;contig;4096;4096;6
read;4;1000;4;64;nto1;nto1;contig;contig;4096;4096;4
read;4;1000;5;64;nto1;nto1;contig;contig;4096;4096;5
read;4;1000;6;64;nto1;nto1;contig;contig;4096;4096;5
read;4;1000;1;32;nton;nton;contig;contig;4096;4096;5
read;4;1000;2;32;nton;nton;contig;contig;4096;4096;5
read;4;1000;3;32;nton;nton;contig;contig;4096;4096;4
read;4;1000;4;32;nton;nton;contig;contig;4096;4096;5
read;4;1000;5;32;nton;nton;contig;contig;4096;4096;4
read;4;1000;6;32;nton;nton;contig;contig;4096;4096;4
read;4;1000;1;64;nton;nton;contig;contig;4096;4096;4
read;4;1000;2;64;nton;nton;contig;contig;4096;4096;6
read;4;1000;3;64;nton;nton;contig;contig;4096;4096;5
read;4;1000;4;64;nton;nton;contig;contig;4096;4096;5
read;4;1000;5;64;nton;nton;contig;contig;4096;4096;6
read;4;1000;6;64;nton;nton;contig;contig;4096;4096;6
read;4;1000;1;32;nto1;nto1;contig;contig;16384;16384;7
read;4;1000;2;32;nto1;nto1;contig;contig;16384;16384;4
read;4;1000;3;32;nto1;nto1;contig;contig;16384;16384;4
read;4;1000;4;32;nto1;nto1;contig;contig;16384;16384;3
read;4;1000;5;32;nto1;nto1;contig;contig;16384;16384;5
read;4;1000;6;32;nto1;nto1;contig;contig;16384;16384;3
read;4;1000;1;64;nto1;nto1;contig;contig;16384;16384;4
read;4;1000;2;64;nto1;nto1;contig;contig;16384;16384;5
read;4;1000;3;64;nto1;nto1;contig;contig;16384;16384;5
read;4;1000;4;64;nto1;nto1;contig;contig;16384;16384;5
read;4;1000;5;64;nto1;nto1;contig;contig;16384;16384;4
read;4;1000;6;64;nto1;nto1;contig;contig;16384;16384;5
read;4;1000;1;32;nton;nton;contig;contig;16384;16384;5
read;4;1000;2;32;nton;nton;contig;contig;16384;16384;4
read;4;1000;3;32;nton;nton;contig;contig;16384;16384;5
read;4;1000;4;32;nton;nton;contig;contig;16384;16384;4
read;4;1000;5;32;nton;nton;contig;contig;16384;16384;4
read;4;1000;6;32;nton;nton;contig;contig;16384;16384;4
read;4;1000;1;64;nton;nton;contig;contig;16384;16384;5
read;4;1000;2;64;nton;nton;contig;contig;16384;16384;7
read;4;1000;3;64;nton;nton;contig;contig;16384;16384;7
read;4;1000;4;64;nton;nton;contig;contig;16384;16384;6
read;4;1000;5;64;nton;nton;contig;contig;16384;16384;5
read;4;1000;6;64;nton;nton;contig;contig;16384;16384;5
read;4;1000;1;32;nto1;nto1;noncontig;noncontig;4096;4096;9
read;4;1000;2;32;nto1;nto1;noncontig;noncontig;4096;4096;4
read;4;1000;3;32;nto1;nto1;noncontig;noncontig;4096;4096;3
read;4;1000;4;32;nto1;nto1;noncontig;noncontig;4096;4096;3
read;4;1000;5;32;nto1;nto1;noncontig;noncontig;4096;4096;4
read;4;1000;6;32;nto1;nto1;noncontig;noncontig;4096;4096;3
read;4;1000;1;64;nto1;nto1;noncontig;noncontig;4096;4096;3
read;4;1000;2;64;nto1;nto1;noncontig;noncontig;4096;4096;4
read;4;1000;3;64;nto1;nto1;noncontig;noncontig;4096;4096;5
read;4;1000;4;64;nto1;nto1;noncontig;noncontig;4096;4096;4
read;4;1000;5;64;nto1;nto1;noncontig;noncontig;4096;4096;4
read;4;1000;6;64;nto1;nto1;noncontig;noncontig;4096;4096;5
read;4;1000;1;32;nto1;nto1;noncontig;noncontig;32;32;5
read;4;1000;2;32;nto1;nto1;noncontig;noncontig;32;32;9
read;4;1000;3;32;nto1;nto1;noncontig;noncontig;32;32;7
read;4;1000;4;32;nto1;nto1;noncontig;noncontig;32;32;10
read;4;1000;5;32;nto1;nto1;noncontig;noncontig;32;32;10
read;4;1000;6;32;nto1;nto1;noncontig;noncontig;32;32;8
read;4;1000;1;64;nto1;nto1;noncontig;noncontig;32;32;8
read;4;1000;2;64;nto1;nto1;noncontig;noncontig;32;32;11
read;4;1000;3;64;nto1;nto1;noncontig;noncontig;32;32;11
read;4;1000;4;64;nto1;nto1;noncontig;noncontig;32;32;10
read;4;1000;5;64;nto1;nto1;noncontig;noncontig;32;32;11
read;4;1000;6;64;nto1;nto1;noncontig;noncontig;32;32;10
read;4;1000;1;32;nto1;nto1;noncontig;noncontig;16384;16384;10
read;4;1000;2;32;nto1;nto1;noncontig;noncontig;16384;16384;4
read;4;1000;3;32;nto1;nto1;noncontig;noncontig;16384;16384;3
read;4;1000;4;32;nto1;nto1;noncontig;noncontig;16384;16384;4
read;4;1000;5;32;nto1;nto1;noncontig;noncontig;16384;16384;4
read;4;1000;6;32;nto1;nto1;noncontig;noncontig;16384;16384;3
read;4;1000;1;64;nto1;nto1;noncontig;noncontig;16384;16384;3
read;4;1000;2;64;nto1;nto1;noncontig;noncontig;16384;16384;5
read;4;1000;3;64;nto1;nto1;noncontig;noncontig;16384;16384;6
read;4;1000;4;64;nto1;nto1;noncontig;noncontig;16384;16384;5
read;4;1000;5;64;nto1;nto1;noncontig;noncontig;16384;16384;4
read;4;1000;6;64;nto1;nto1;noncontig;noncontig;16384;16384;5
read;4;1000;6;64;nto1;nto1;noncontig;noncontig;16384;16384;5
write;1;10;2;32;nto1;nto1;contig;contig;4096;4096;5
write;1;10;3;32;nto1;nto1;contig;contig;4096;4096;4
write;1;10;4;32;nto1;nto1;contig;contig;4096;4096;5
write;1;10;5;32;nto1;nto1;contig;contig;4096;4096;4
write;1;10;6;32;nto1;nto1;contig;contig;4096;4096;4
write;1;10;1;64;nto1;nto1;contig;contig;4096;4096;4
write;1;10;2;64;nto1;nto1;contig;contig;4096;4096;6
write;1;10;3;64;nto1;nto1;contig;contig;4096;4096;6
write;1;10;4;64;nto1;nto1;contig;contig;4096;4096;5
write;1;10;5;64;nto1;nto1;contig;contig;4096;4096;6
write;1;10;6;64;nto1;nto1;contig;contig;4096;4096;5
write;1;10;1;32;nton;nton;contig;contig;4096;4096;6
write;1;10;2;32;nton;nton;contig;contig;4096;4096;34
write;1;10;3;32;nton;nton;contig;contig;4096;4096;35
write;1;10;4;32;nton;nton;contig;contig;4096;4096;38
write;1;10;5;32;nton;nton;contig;contig;4096;4096;36
write;1;10;6;32;nton;nton;contig;contig;4096;4096;44
write;1;10;1;64;nton;nton;contig;contig;4096;4096;44
write;1;10;2;64;nton;nton;contig;contig;4096;4096;42
write;1;10;3;64;nton;nton;contig;contig;4096;4096;45
write;1;10;4;64;nton;nton;contig;contig;4096;4096;39
write;1;10;5;64;nton;nton;contig;contig;4096;4096;46
write;1;10;6;64;nton;nton;contig;contig;4096;4096;42
write;1;10;1;32;nto1;nto1;contig;contig;16384;16384;43
write;1;10;2;32;nto1;nto1;contig;contig;16384;16384;4
write;1;10;3;32;nto1;nto1;contig;contig;16384;16384;4
write;1;10;4;32;nto1;nto1;contig;contig;16384;16384;5
write;1;10;5;32;nto1;nto1;contig;contig;16384;16384;4
write;1;10;6;32;nto1;nto1;contig;contig;16384;16384;4
write;1;10;1;64;nto1;nto1;contig;contig;16384;16384;4
write;1;10;2;64;nto1;nto1;contig;contig;16384;16384;6
write;1;10;3;64;nto1;nto1;contig;contig;16384;16384;6
write;1;10;4;64;nto1;nto1;contig;contig;16384;16384;5
write;1;10;5;64;nto1;nto1;contig;contig;16384;16384;6
write;1;10;6;64;nto1;nto1;contig;contig;16384;16384;6
write;1;10;1;32;nton;nton;contig;contig;16384;16384;6
write;1;10;2;32;nton;nton;contig;contig;16384;16384;48
write;1;10;3;32;nton;nton;contig;contig;16384;16384;37
write;1;10;4;32;nton;nton;contig;contig;16384;16384;39
write;1;10;5;32;nton;nton;contig;contig;16384;16384;32
write;1;10;6;32;nton;nton;contig;contig;16384;16384;48
write;1;10;1;64;nton;nton;contig;contig;16384;16384;39
write;1;10;2;64;nton;nton;contig;contig;16384;16384;45
write;1;10;3;64;nton;nton;contig;contig;16384;16384;44
write;1;10;4;64;nton;nton;contig;contig;16384;16384;45
write;1;10;5;64;nton;nton;contig;contig;16384;16384;36
write;1;10;6;64;nton;nton;contig;contig;16384;16384;47
write;1;10;1;32;nto1;nto1;noncontig;noncontig;4096;4096;36
write;1;10;2;32;nto1;nto1;noncontig;noncontig;4096;4096;5
write;1;10;3;32;nto1;nto1;noncontig;noncontig;4096;4096;4
write;1;10;4;32;nto1;nto1;noncontig;noncontig;4096;4096;4
write;1;10;5;32;nto1;nto1;noncontig;noncontig;4096;4096;5
write;1;10;6;32;nto1;nto1;noncontig;noncontig;4096;4096;5
write;1;10;1;64;nto1;nto1;noncontig;noncontig;4096;4096;4
write;1;10;2;64;nto1;nto1;noncontig;noncontig;4096;4096;6
write;1;10;3;64;nto1;nto1;noncontig;noncontig;4096;4096;6
write;1;10;4;64;nto1;nto1;noncontig;noncontig;4096;4096;6
write;1;10;5;64;nto1;nto1;noncontig;noncontig;4096;4096;6
write;1;10;6;64;nto1;nto1;noncontig;noncontig;4096;4096;5
write;1;10;1;32;nto1;nto1;noncontig;noncontig;32;32;6
write;1;10;2;32;nto1;nto1;noncontig;noncontig;32;32;57
write;1;10;3;32;nto1;nto1;noncontig;noncontig;32;32;59
write;1;10;4;32;nto1;nto1;noncontig;noncontig;32;32;46
write;1;10;5;32;nto1;nto1;noncontig;noncontig;32;32;51
write;1;10;6;32;nto1;nto1;noncontig;noncontig;32;32;37
write;1;10;1;64;nto1;nto1;noncontig;noncontig;32;32;56
write;1;10;2;64;nto1;nto1;noncontig;noncontig;32;32;55
write;1;10;3;64;nto1;nto1;noncontig;noncontig;32;32;58
write;1;10;4;64;nto1;nto1;noncontig;noncontig;32;32;50
write;1;10;5;64;nto1;nto1;noncontig;noncontig;32;32;51
write;1;10;6;64;nto1;nto1;noncontig;noncontig;32;32;50
write;1;10;1;32;nto1;nto1;noncontig;noncontig;16384;16384;50
write;1;10;2;32;nto1;nto1;noncontig;noncontig;16384;16384;4
write;1;10;3;32;nto1;nto1;noncontig;noncontig;16384;16384;5
write;1;10;4;32;nto1;nto1;noncontig;noncontig;16384;16384;5
write;1;10;5;32;nto1;nto1;noncontig;noncontig;16384;16384;4
write;1;10;6;32;nto1;nto1;noncontig;noncontig;16384;16384;4
write;1;10;1;64;nto1;nto1;noncontig;noncontig;16384;16384;5
write;1;10;2;64;nto1;nto1;noncontig;noncontig;16384;16384;6
write;1;10;3;64;nto1;nto1;noncontig;noncontig;16384;16384;5
write;1;10;4;64;nto1;nto1;noncontig;noncontig;16384;16384;6
write;1;10;5;64;nto1;nto1;noncontig;noncontig;16384;16384;6
write;1;10;6;64;nto1;nto1;noncontig;noncontig;16384;16384;6
write;1;10;6;64;nto1;nto1;noncontig;noncontig;16384;16384;6
write;2;10;2;32;nto1;nto1;contig;contig;4096;4096;5
write;2;10;3;32;nto1;nto1;contig;contig;4096;4096;4
write;2;10;4;32;nto1;nto1;contig;contig;4096;4096;5
write;2;10;5;32;nto1;nto1;contig;contig;4096;4096;4
write;2;10;6;32;nto1;nto1;contig;contig;4096;4096;4
write;2;10;1;64;nto1;nto1;contig;contig;4096;4096;4
write;2;10;2;64;nto1;nto1;contig;contig;4096;4096;6
write;2;10;3;64;nto1;nto1;contig;contig;4096;4096;6
write;2;10;4;64;nto1;nto1;contig;contig;4096;4096;5
write;2;10;5;64;nto1;nto1;contig;contig;4096;4096;6
write;2;10;6;64;nto1;nto1;contig;contig;4096;4096;5
write;2;10;1;32;nton;nton;contig;contig;4096;4096;6
write;2;10;2;32;nton;nton;contig;contig;4096;4096;34
write;2;10;3;32;nton;nton;contig;contig;4096;4096;35
write;2;10;4;32;nton;nton;contig;contig;4096;4096;38
write;2;10;5;32;nton;nton;contig;contig;4096;4096;36
write;2;10;6;32;nton;nton;contig;contig;4096;4096;45
write;2;10;1;64;nton;nton;contig;contig;4096;4096;44
write;2;10;2;64;nton;nton;contig;contig;4096;4096;42
write;2;10;3;64;nton;nton;contig;contig;4096;4096;44
write;2;10;4;64;nton;nton;contig;contig;4096;4096;40
write;2;10;5;64;nton;nton;contig;contig;4096;4096;47
write;2;10;6;64;nton;nton;contig;contig;4096;4096;43
write;2;10;1;32;nto1;nto1;contig;contig;16384;16384;43
write;2;10;2;32;nto1;nto1;contig;contig;16384;16384;4
write;2;10;3;32;nto1;nto1;contig;contig;16384;16384;4
write;2;10;4;32;nto1;nto1;contig;contig;16384;16384;5
write;2;10;5;32;nto1;nto1;contig;contig;16384;16384;4
write;2;10;6;32;nto1;nto1;contig;contig;16384;16384;4
write;2;10;1;64;nto1;nto1;contig;contig;16384;16384;4
write;2;10;2;64;nto1;nto1;contig;contig;16384;16384;6
write;2;10;3;64;nto1;nto1;contig;contig;16384;16384;6
write;2;10;4;64;nto1;nto1;contig;contig;16384;16384;5
write;2;10;5;64;nto1;nto1;contig;contig;16384;16384;6
write;2;10;6;64;nto1;nto1;contig;contig;16384;16384;6
write;2;10;1;32;nton;nton;contig;contig;16384;16384;6
write;2;10;2;32;nton;nton;contig;contig;16384;16384;48
write;2;10;3;32;nton;nton;contig;contig;16384;16384;36
write;2;10;4;32;nton;nton;contig;contig;16384;16384;38
write;2;10;5;32;nton;nton;contig;contig;16384;16384;31
write;2;10;6;32;nton;nton;contig;contig;16384;16384;48
write;2;10;1;64;nton;nton;contig;contig;16384;16384;39
write;2;10;2;64;nton;nton;contig;contig;16384;16384;45
write;2;10;3;64;nton;nton;contig;contig;16384;16384;44
write;2;10;4;64;nton;nton;contig;contig;16384;16384;45
write;2;10;5;64;nton;nton;contig;contig;16384;16384;37
write;2;10;6;64;nton;nton;contig;contig;16384;16384;46
write;2;10;1;32;nto1;nto1;noncontig;noncontig;4096;4096;36
write;2;10;2;32;nto1;nto1;noncontig;noncontig;4096;4096;5
write;2;10;3;32;nto1;nto1;noncontig;noncontig;4096;4096;4
write;2;10;4;32;nto1;nto1;noncontig;noncontig;4096;4096;4
write;2;10;5;32;nto1;nto1;noncontig;noncontig;4096;4096;5
write;2;10;6;32;nto1;nto1;noncontig;noncontig;4096;4096;5
write;2;10;1;64;nto1;nto1;noncontig;noncontig;4096;4096;4
write;2;10;2;64;nto1;nto1;noncontig;noncontig;4096;4096;6
write;2;10;3;64;nto1;nto1;noncontig;noncontig;4096;4096;6
write;2;10;4;64;nto1;nto1;noncontig;noncontig;4096;4096;6
write;2;10;5;64;nto1;nto1;noncontig;noncontig;4096;4096;6
write;2;10;6;64;nto1;nto1;noncontig;noncontig;4096;4096;5
write;2;10;1;32;nto1;nto1;noncontig;noncontig;32;32;6
write;2;10;2;32;nto1;nto1;noncontig;noncontig;32;32;53
write;2;10;3;32;nto1;nto1;noncontig;noncontig;32;32;63
write;2;10;4;32;nto1;nto1;noncontig;noncontig;32;32;55
write;2;10;5;32;nto1;nto1;noncontig;noncontig;32;32;55
write;2;10;6;32;nto1;nto1;noncontig;noncontig;32;32;59
write;2;10;1;64;nto1;nto1;noncontig;noncontig;32;32;53
write;2;10;2;64;nto1;nto1;noncontig;noncontig;32;32;56
write;2;10;3;64;nto1;nto1;noncontig;noncontig;32;32;62
write;2;10;4;64;nto1;nto1;noncontig;noncontig;32;32;50
write;2;10;5;64;nto1;nto1;noncontig;noncontig;32;32;51
write;2;10;6;64;nto1;nto1;noncontig;noncontig;32;32;45
write;2;10;1;32;nto1;nto1;noncontig;noncontig;16384;16384;44
write;2;10;2;32;nto1;nto1;noncontig;noncontig;16384;16384;4
write;2;10;3;32;nto1;nto1;noncontig;noncontig;16384;16384;5
write;2;10;4;32;nto1;nto1;noncontig;noncontig;16384;16384;5
write;2;10;5;32;nto1;nto1;noncontig;noncontig;16384;16384;4
write;2;10;6;32;nto1;nto1;noncontig;noncontig;16384;16384;4
write;2;10;1;64;nto1;nto1;noncontig;noncontig;16384;16384;5
write;2;10;2;64;nto1;nto1;noncontig;noncontig;16384;16384;6
write;2;10;3;64;nto1;nto1;noncontig;noncontig;16384;16384;5
write;2;10;4;64;nto1;nto1;noncontig;noncontig;16384;16384;6
write;2;10;5;64;nto1;nto1;noncontig;noncontig;16384;16384;6
write;2;10;6;64;nto1;nto1;noncontig;noncontig;16384;16384;6
write;2;10;6;64;nto1;nto1;noncontig;noncontig;16384;16384;6
write;3;10;2;32;nto1;nto1;contig;contig;4096;4096;5
write;3;10;3;32;nto1;nto1;contig;contig;4096;4096;4
write;3;10;4;32;nto1;nto1;contig;contig;4096;4096;5
write;3;10;5;32;nto1;nto1;contig;contig;4096;4096;4
write;3;10;6;32;nto1;nto1;contig;contig;4096;4096;4
write;3;10;1;64;nto1;nto1;contig;contig;4096;4096;4
write;3;10;2;64;nto1;nto1;contig;contig;4096;4096;6
write;3;10;3;64;nto1;nto1;contig;contig;4096;4096;6
write;3;10;4;64;nto1;nto1;contig;contig;4096;4096;5
write;3;10;5;64;nto1;nto1;contig;contig;4096;4096;6
write;3;10;6;64;nto1;nto1;contig;contig;4096;4096;5
write;3;10;1;32;nton;nton;contig;contig;4096;4096;6
write;3;10;2;32;nton;nton;contig;contig;4096;4096;34
write;3;10;3;32;nton;nton;contig;contig;4096;4096;35
write;3;10;4;32;nton;nton;contig;contig;4096;4096;39
write;3;10;5;32;nton;nton;contig;contig;4096;4096;36
write;3;10;6;32;nton;nton;contig;contig;4096;4096;45
write;3;10;1;64;nton;nton;contig;contig;4096;4096;44
write;3;10;2;64;nton;nton;contig;contig;4096;4096;42
write;3;10;3;64;nton;nton;contig;contig;4096;4096;44
write;3;10;4;64;nton;nton;contig;contig;4096;4096;40
write;3;10;5;64;nton;nton;contig;contig;4096;4096;47
write;3;10;6;64;nton;nton;contig;contig;4096;4096;42
write;3;10;1;32;nto1;nto1;contig;contig;16384;16384;42
write;3;10;2;32;nto1;nto1;contig;contig;16384;16384;4
write;3;10;3;32;nto1;nto1;contig;contig;16384;16384;4
write;3;10;4;32;nto1;nto1;contig;contig;16384;16384;5
write;3;10;5;32;nto1;nto1;contig;contig;16384;16384;4
write;3;10;6;32;nto1;nto1;contig;contig;16384;16384;4
write;3;10;1;64;nto1;nto1;contig;contig;16384;16384;4
write;3;10;2;64;nto1;nto1;contig;contig;16384;16384;6
write;3;10;3;64;nto1;nto1;contig;contig;16384;16384;6
write;3;10;4;64;nto1;nto1;contig;contig;16384;16384;5
write;3;10;5;64;nto1;nto1;contig;contig;16384;16384;6
write;3;10;6;64;nto1;nto1;contig;contig;16384;16384;6
write;3;10;1;32;nton;nton;contig;contig;16384;16384;6
write;3;10;2;32;nton;nton;contig;contig;16384;16384;48
write;3;10;3;32;nton;nton;contig;contig;16384;16384;36
write;3;10;4;32;nton;nton;contig;contig;16384;16384;38
write;3;10;5;32;nton;nton;contig;contig;16384;16384;31
write;3;10;6;32;nton;nton;contig;contig;16384;16384;48
write;3;10;1;64;nton;nton;contig;contig;16384;16384;39
write;3;10;2;64;nton;nton;contig;contig;16384;16384;45
write;3;10;3;64;nton;nton;contig;contig;16384;16384;44
write;3;10;4;64;nton;nton;contig;contig;16384;16384;45
write;3;10;5;64;nton;nton;contig;contig;16384;16384;36
write;3;10;6;64;nton;nton;contig;contig;16384;16384;47
write;3;10;1;32;nto1;nto1;noncontig;noncontig;4096;4096;36
write;3;10;2;32;nto1;nto1;noncontig;noncontig;4096;4096;5
write;3;10;3;32;nto1;nto1;noncontig;noncontig;4096;4096;4
write;3;10;4;32;nto1;nto1;noncontig;noncontig;4096;4096;4
write;3;10;5;32;nto1;nto1;noncontig;noncontig;4096;4096;5
write;3;10;6;32;nto1;nto1;noncontig;noncontig;4096;4096;5
write;3;10;1;64;nto1;nto1;noncontig;noncontig;4096;4096;4
write;3;10;2;64;nto1;nto1;noncontig;noncontig;4096;4096;6
write;3;10;3;64;nto1;nto1;noncontig;noncontig;4096;4096;6
write;3;10;4;64;nto1;nto1;noncontig;noncontig;4096;4096;6
write;3;10;5;64;nto1;nto1;noncontig;noncontig;4096;4096;6
write;3;10;6;64;nto1;nto1;noncontig;noncontig;4096;4096;5
write;3;10;1;32;nto1;nto1;noncontig;noncontig;32;32;6
write;3;10;2;32;nto1;nto1;noncontig;noncontig;32;32;54
write;3;10;3;32;nto1;nto1;noncontig;noncontig;32;32;50
write;3;10;4;32;nto1;nto1;noncontig;noncontig;32;32;47
write;3;10;5;32;nto1;nto1;noncontig;noncontig;32;32;55
write;3;10;6;32;nto1;nto1;noncontig;noncontig;32;32;35
write;3;10;1;64;nto1;nto1;noncontig;noncontig;32;32;76
write;3;10;2;64;nto1;nto1;noncontig;noncontig;32;32;55
write;3;10;3;64;nto1;nto1;noncontig;noncontig;32;32;48
write;3;10;4;64;nto1;nto1;noncontig;noncontig;32;32;49
write;3;10;5;64;nto1;nto1;noncontig;noncontig;32;32;51
write;3;10;6;64;nto1;nto1;noncontig;noncontig;32;32;51
write;3;10;1;32;nto1;nto1;noncontig;noncontig;16384;16384;50
write;3;10;2;32;nto1;nto1;noncontig;noncontig;16384;16384;4
write;3;10;3;32;nto1;nto1;noncontig;noncontig;16384;16384;5
write;3;10;4;32;nto1;nto1;noncontig;noncontig;16384;16384;5
write;3;10;5;32;nto1;nto1;noncontig;noncontig;16384;16384;4
write;3;10;6;32;nto1;nto1;noncontig;noncontig;16384;16384;4
write;3;10;1;64;nto1;nto1;noncontig;noncontig;16384;16384;5
write;3;10;2;64;nto1;nto1;noncontig;noncontig;16384;16384;6
write;3;10;3;64;nto1;nto1;noncontig;noncontig;16384;16384;5
write;3;10;4;64;nto1;nto1;noncontig;noncontig;16384;16384;6
write;3;10;5;64;nto1;nto1;noncontig;noncontig;16384;16384;6
write;3;10;6;64;nto1;nto1;noncontig;noncontig;16384;16384;6
write;3;10;6;64;nto1;nto1;noncontig;noncontig;16384;16384;6
write;4;10;2;32;nto1;nto1;contig;contig;4096;4096;5
write;4;10;3;32;nto1;nto1;contig;contig;4096;4096;4
write;4;10;4;32;nto1;nto1;contig;contig;4096;4096;5
write;4;10;5;32;nto1;nto1;contig;contig;4096;4096;4
write;4;10;6;32;nto1;nto1;contig;contig;4096;4096;4
write;4;10;1;64;nto1;nto1;contig;contig;4096;4096;4
write;4;10;2;64;nto1;nto1;contig;contig;4096;4096;6
write;4;10;3;64;nto1;nto1;contig;contig;4096;4096;6
write;4;10;4;64;nto1;nto1;contig;contig;4096;4096;5
write;4;10;5;64;nto1;nto1;contig;contig;4096;4096;6
write;4;10;6;64;nto1;nto1;contig;contig;4096;4096;5
write;4;10;1;32;nton;nton;contig;contig;4096;4096;6
write;4;10;2;32;nton;nton;contig;contig;4096;4096;35
write;4;10;3;32;nton;nton;contig;contig;4096;4096;35
write;4;10;4;32;nton;nton;contig;contig;4096;4096;38
write;4;10;5;32;nton;nton;contig;contig;4096;4096;35
write;4;10;6;32;nton;nton;contig;contig;4096;4096;45
write;4;10;1;64;nton;nton;contig;contig;4096;4096;44
write;4;10;2;64;nton;nton;contig;contig;4096;4096;43
write;4;10;3;64;nton;nton;contig;contig;4096;4096;45
write;4;10;4;64;nton;nton;contig;contig;4096;4096;40
write;4;10;5;64;nton;nton;contig;contig;4096;4096;47
write;4;10;6;64;nton;nton;contig;contig;4096;4096;44
write;4;10;1;32;nto1;nto1;contig;contig;16384;16384;42
write;4;10;2;32;nto1;nto1;contig;contig;16384;16384;4
write;4;10;3;32;nto1;nto1;contig;contig;16384;16384;4
write;4;10;4;32;nto1;nto1;contig;contig;16384;16384;5
write;4;10;5;32;nto1;nto1;contig;contig;16384;16384;4
write;4;10;6;32;nto1;nto1;contig;contig;16384;16384;4
write;4;10;1;64;nto1;nto1;contig;contig;16384;16384;4
write;4;10;2;64;nto1;nto1;contig;contig;16384;16384;6
write;4;10;3;64;nto1;nto1;contig;contig;16384;16384;6
write;4;10;4;64;nto1;nto1;contig;contig;16384;16384;5
write;4;10;5;64;nto1;nto1;contig;contig;16384;16384;6
write;4;10;6;64;nto1;nto1;contig;contig;16384;16384;6
write;4;10;1;32;nton;nton;contig;contig;16384;16384;6
write;4;10;2;32;nton;nton;contig;contig;16384;16384;48
write;4;10;3;32;nton;nton;contig;contig;16384;16384;36
write;4;10;4;32;nton;nton;contig;contig;16384;16384;39
write;4;10;5;32;nton;nton;contig;contig;16384;16384;32
write;4;10;6;32;nton;nton;contig;contig;16384;16384;48
write;4;10;1;64;nton;nton;contig;contig;16384;16384;39
write;4;10;2;64;nton;nton;contig;contig;16384;16384;45
write;4;10;3;64;nton;nton;contig;contig;16384;16384;44
write;4;10;4;64;nton;nton;contig;contig;16384;16384;45
write;4;10;5;64;nton;nton;contig;contig;16384;16384;35
write;4;10;6;64;nton;nton;contig;contig;16384;16384;47
write;4;10;1;32;nto1;nto1;noncontig;noncontig;4096;4096;35
write;4;10;2;32;nto1;nto1;noncontig;noncontig;4096;4096;5
write;4;10;3;32;nto1;nto1;noncontig;noncontig;4096;4096;4
write;4;10;4;32;nto1;nto1;noncontig;noncontig;4096;4096;4
write;4;10;5;32;nto1;nto1;noncontig;noncontig;4096;4096;5
write;4;10;6;32;nto1;nto1;noncontig;noncontig;4096;4096;5
write;4;10;1;64;nto1;nto1;noncontig;noncontig;4096;4096;4
write;4;10;2;64;nto1;nto1;noncontig;noncontig;4096;4096;6
write;4;10;3;64;nto1;nto1;noncontig;noncontig;4096;4096;6
write;4;10;4;64;nto1;nto1;noncontig;noncontig;4096;4096;6
write;4;10;5;64;nto1;nto1;noncontig;noncontig;4096;4096;6
write;4;10;6;64;nto1;nto1;noncontig;noncontig;4096;4096;5
write;4;10;1;32;nto1;nto1;noncontig;noncontig;32;32;6
write;4;10;2;32;nto1;nto1;noncontig;noncontig;32;32;61
write;4;10;3;32;nto1;nto1;noncontig;noncontig;32;32;51
write;4;10;4;32;nto1;nto1;noncontig;noncontig;32;32;42
write;4;10;5;32;nto1;nto1;noncontig;noncontig;32;32;62
write;4;10;6;32;nto1;nto1;noncontig;noncontig;32;32;53
write;4;10;1;64;nto1;nto1;noncontig;noncontig;32;32;55
write;4;10;2;64;nto1;nto1;noncontig;noncontig;32;32;54
write;4;10;3;64;nto1;nto1;noncontig;noncontig;32;32;57
write;4;10;4;64;nto1;nto1;noncontig;noncontig;32;32;50
write;4;10;5;64;nto1;nto1;noncontig;noncontig;32;32;52
write;4;10;6;64;nto1;nto1;noncontig;noncontig;32;32;51
write;4;10;1;32;nto1;nto1;noncontig;noncontig;16384;16384;49
write;4;10;2;32;nto1;nto1;noncontig;noncontig;16384;16384;4
write;4;10;3;32;nto1;nto1;noncontig;noncontig;16384;16384;5
write;4;10;4;32;nto1;nto1;noncontig;noncontig;16384;16384;5
write;4;10;5;32;nto1;nto1;noncontig;noncontig;16384;16384;4
write;4;10;6;32;nto1;nto1;noncontig;noncontig;16384;16384;4
write;4;10;1;64;nto1;nto1;noncontig;noncontig;16384;16384;5
write;4;10;2;64;nto1;nto1;noncontig;noncontig;16384;16384;6
write;4;10;3;64;nto1;nto1;noncontig;noncontig;16384;16384;5
write;4;10;4;64;nto1;nto1;noncontig;noncontig;16384;16384;6
write;4;10;5;64;nto1;nto1;noncontig;noncontig;16384;16384;6
write;4;10;6;64;nto1;nto1;noncontig;noncontig;16384;16384;6
write;4;10;6;64;nto1;nto1;noncontig;noncontig;16384;16384;6
